Ref,Val,Package,PosX,PosY,Rot,Side
"C1","22µ","C_1206_3216Metric",137.687000,-83.568000,0.000000,top
"C2","1µ","C_0805_2012Metric",132.877600,-81.787500,90.000000,top
"C3","8.2p","C_0603_1608Metric",135.646200,-75.399200,270.000000,top
"C4","22µ","C_0603_1608Metric",137.982900,-76.720000,180.000000,top
"C5","22µ","C_0603_1608Metric",137.982900,-75.221400,180.000000,top
"C6","4µ7","C_0603_1608Metric",133.089000,-87.362300,270.000000,top
"C7","47µ","C_1206_3216Metric",138.550000,-87.257600,270.000000,top
"C8","100n","C_0402_1005Metric",159.900800,-90.131200,0.000000,top
"C39","100n","C_0402_1005Metric",157.240000,-85.505000,90.000000,top
"D1","LED","LED_0603_1608Metric",149.032100,-90.867800,0.000000,top
"D2","LED-LOCK","LED_0603_1608Metric",152.715000,-69.709600,270.000000,top
"D3","LED-USER","LED_0603_1608Metric",154.340600,-69.709600,270.000000,top
"D4","LED-3V3","LED_0603_1608Metric",133.588800,-84.517800,0.000000,top
"IC1","EN5329QI","EN5339QI",137.113200,-79.803200,180.000000,top
"R1","348k","R_0603_1608Metric",134.147600,-75.424600,270.000000,top
"R2","523k","R_0603_1608Metric",132.890000,-78.472500,270.000000,top
"R3","33R","R_0402_1005Metric",149.182000,-72.503600,180.000000,top
"R4","10k","R_0402_1005Metric",145.855400,-89.300000,90.000000,top
"R5","10k","R_0402_1005Metric",144.764800,-89.316000,90.000000,top
"R6","4k7","R_0402_1005Metric",146.830400,-89.310000,90.000000,top
"R7","4k7","R_0402_1005Metric",148.255400,-89.325000,90.000000,top
"R8","1k","R_0402_1005Metric",151.720000,-72.180000,90.000000,top
"R9","1k5","R_0402_1005Metric",156.878200,-88.175400,0.000000,top
"R10","1k5","R_0402_1005Metric",156.852800,-87.235600,0.000000,top
"R11","33R","R_0402_1005Metric",156.470000,-83.295000,270.000000,top
"R12","330","R_0402_1005Metric",149.205400,-89.340000,270.000000,top
"R13","330","R_0402_1005Metric",150.180400,-89.340000,90.000000,top
"R17","4k7","R_0402_1005Metric",141.630000,-89.350000,270.000000,top
"R18","680","R_0402_1005Metric",152.715000,-72.175800,270.000000,top
"R21","680","R_0402_1005Metric",154.340600,-72.175800,270.000000,top
"R22","680","R_0402_1005Metric",134.531000,-83.298600,180.000000,top
"REF**","Fiducial_0.75mm_Dia_1.5mm_Outer","Fiducial_0.75mm_Dia_1.5mm_Outer",132.905400,-90.650000,0.000000,top
"REF**","Fiducial_0.75mm_Dia_1.5mm_Outer","Fiducial_0.75mm_Dia_1.5mm_Outer",132.805400,-68.850000,0.000000,top
"REF**","Fiducial_0.75mm_Dia_1.5mm_Outer","Fiducial_0.75mm_Dia_1.5mm_Outer",161.105400,-68.850000,0.000000,top
"U1","XC7S50","FTGB196",148.205400,-80.750000,0.000000,top
"U2","EP5388QI","EP5388QI",135.603600,-87.336800,90.000000,top
"U3","ATECC608A","DFN-8-1EP_3x2mm_P0.5mm_EP1.3x1.5mm",159.928600,-88.277000,180.000000,top
"U4","S25FL128SAGN","WSON8-8x6",159.098000,-77.990000,90.000000,top
"X1","XO32-12MHz","Oscillator_SMD_EuroQuartz_XO32-4Pin_3.2x2.5mm",159.001800,-84.830800,90.000000,top
