EESchema Schematic File Version 4
LIBS:iccfpga-cache
EELAYER 30 0
EELAYER END
$Descr A3 16535 11693
encoding utf-8
Sheet 1 1
Title ""
Date ""
Rev ""
Comp ""
Comment1 ""
Comment2 ""
Comment3 ""
Comment4 ""
$EndDescr
$Comp
L mylib:XC7S50 U1
U 1 1 5C95EA9D
P 10350 7550
F 0 "U1" H 10350 7815 50  0000 C CNN
F 1 "XC7S50" H 10350 7724 50  0000 C CNN
F 2 "myfootprints:FTGB196" H 9550 7550 50  0001 C CNN
F 3 "" H 9550 7550 50  0001 C CNN
	1    10350 7550
	1    0    0    -1  
$EndComp
$Comp
L mylib:XC7S50 U1
U 3 1 5C967986
P 11050 3900
F 0 "U1" H 12378 2796 50  0000 L CNN
F 1 "XC7S50" H 12378 2705 50  0000 L CNN
F 2 "myfootprints:FTGB196" H 10250 3900 50  0001 C CNN
F 3 "" H 10250 3900 50  0001 C CNN
	3    11050 3900
	1    0    0    -1  
$EndComp
$Comp
L mylib:XC7S50 U1
U 4 1 5C96BD50
P 11050 1050
F 0 "U1" H 12518 -54 50  0000 L CNN
F 1 "XC7S50" H 12518 -145 50  0000 L CNN
F 2 "myfootprints:FTGB196" H 10250 1050 50  0001 C CNN
F 3 "" H 10250 1050 50  0001 C CNN
	4    11050 1050
	1    0    0    -1  
$EndComp
$Comp
L mylib:XC7S50 U1
U 5 1 5C96FF75
P 8750 3900
F 0 "U1" H 10078 2796 50  0000 L CNN
F 1 "XC7S50" H 10078 2705 50  0000 L CNN
F 2 "myfootprints:FTGB196" H 7950 3900 50  0001 C CNN
F 3 "" H 7950 3900 50  0001 C CNN
	5    8750 3900
	1    0    0    -1  
$EndComp
$Comp
L mylib:XC7S50 U1
U 6 1 5C97648D
P 15200 1100
F 0 "U1" H 15200 1365 50  0000 C CNN
F 1 "XC7S50" H 15200 1274 50  0000 C CNN
F 2 "myfootprints:FTGB196" H 14400 1100 50  0001 C CNN
F 3 "" H 14400 1100 50  0001 C CNN
	6    15200 1100
	1    0    0    -1  
$EndComp
$Comp
L mylib:XC7S50 U1
U 7 1 5C979CC5
P 13500 1000
F 0 "U1" H 14028 -304 50  0000 L CNN
F 1 "XC7S50" H 14028 -395 50  0000 L CNN
F 2 "myfootprints:FTGB196" H 12700 1000 50  0001 C CNN
F 3 "" H 12700 1000 50  0001 C CNN
	7    13500 1000
	1    0    0    -1  
$EndComp
$Comp
L power:GND #PWR0101
U 1 1 5C9A39BF
P 14750 3600
F 0 "#PWR0101" H 14750 3350 50  0001 C CNN
F 1 "GND" H 14755 3427 50  0000 C CNN
F 2 "" H 14750 3600 50  0001 C CNN
F 3 "" H 14750 3600 50  0001 C CNN
	1    14750 3600
	1    0    0    -1  
$EndComp
Wire Wire Line
	14750 3600 14750 3500
Wire Wire Line
	14750 1100 14800 1100
Wire Wire Line
	14800 1200 14750 1200
Connection ~ 14750 1200
Wire Wire Line
	14750 1200 14750 1100
Wire Wire Line
	14800 1300 14750 1300
Connection ~ 14750 1300
Wire Wire Line
	14750 1300 14750 1200
Wire Wire Line
	14800 1400 14750 1400
Connection ~ 14750 1400
Wire Wire Line
	14750 1400 14750 1300
Wire Wire Line
	14800 1500 14750 1500
Connection ~ 14750 1500
Wire Wire Line
	14750 1500 14750 1400
Wire Wire Line
	14800 1600 14750 1600
Connection ~ 14750 1600
Wire Wire Line
	14750 1600 14750 1500
Wire Wire Line
	14800 1700 14750 1700
Connection ~ 14750 1700
Wire Wire Line
	14750 1700 14750 1600
Wire Wire Line
	14800 1800 14750 1800
Connection ~ 14750 1800
Wire Wire Line
	14750 1800 14750 1700
Wire Wire Line
	14800 1900 14750 1900
Connection ~ 14750 1900
Wire Wire Line
	14750 1900 14750 1800
Wire Wire Line
	14800 2000 14750 2000
Connection ~ 14750 2000
Wire Wire Line
	14750 2000 14750 1900
Wire Wire Line
	14800 2100 14750 2100
Connection ~ 14750 2100
Wire Wire Line
	14750 2100 14750 2000
Wire Wire Line
	14800 2200 14750 2200
Connection ~ 14750 2200
Wire Wire Line
	14750 2200 14750 2100
Wire Wire Line
	14800 2300 14750 2300
Connection ~ 14750 2300
Wire Wire Line
	14750 2300 14750 2200
Wire Wire Line
	14800 2400 14750 2400
Connection ~ 14750 2400
Wire Wire Line
	14750 2400 14750 2300
Wire Wire Line
	14800 2500 14750 2500
Connection ~ 14750 2500
Wire Wire Line
	14750 2500 14750 2400
Wire Wire Line
	14800 2600 14750 2600
Connection ~ 14750 2600
Wire Wire Line
	14750 2600 14750 2500
Wire Wire Line
	14800 2700 14750 2700
Connection ~ 14750 2700
Wire Wire Line
	14750 2700 14750 2600
Wire Wire Line
	14800 2800 14750 2800
Connection ~ 14750 2800
Wire Wire Line
	14750 2800 14750 2700
Wire Wire Line
	14800 2900 14750 2900
Connection ~ 14750 2900
Wire Wire Line
	14750 2900 14750 2800
Wire Wire Line
	14800 3000 14750 3000
Connection ~ 14750 3000
Wire Wire Line
	14750 3000 14750 2900
Wire Wire Line
	14800 3100 14750 3100
Connection ~ 14750 3100
Wire Wire Line
	14750 3100 14750 3000
Wire Wire Line
	14800 3200 14750 3200
Connection ~ 14750 3200
Wire Wire Line
	14750 3200 14750 3100
Wire Wire Line
	14800 3300 14750 3300
Connection ~ 14750 3300
Wire Wire Line
	14750 3300 14750 3200
Wire Wire Line
	14800 3400 14750 3400
Connection ~ 14750 3400
Wire Wire Line
	14750 3400 14750 3300
Wire Wire Line
	14800 3500 14750 3500
Connection ~ 14750 3500
Wire Wire Line
	14750 3500 14750 3400
$Comp
L power:GND #PWR0102
U 1 1 5C9BD846
P 15650 3600
F 0 "#PWR0102" H 15650 3350 50  0001 C CNN
F 1 "GND" H 15655 3427 50  0000 C CNN
F 2 "" H 15650 3600 50  0001 C CNN
F 3 "" H 15650 3600 50  0001 C CNN
	1    15650 3600
	1    0    0    -1  
$EndComp
Wire Wire Line
	15650 3600 15650 3500
Wire Wire Line
	15650 1100 15600 1100
Wire Wire Line
	15600 1200 15650 1200
Connection ~ 15650 1200
Wire Wire Line
	15650 1200 15650 1100
Wire Wire Line
	15600 1300 15650 1300
Connection ~ 15650 1300
Wire Wire Line
	15650 1300 15650 1200
Wire Wire Line
	15600 1400 15650 1400
Connection ~ 15650 1400
Wire Wire Line
	15650 1400 15650 1300
Wire Wire Line
	15600 1500 15650 1500
Connection ~ 15650 1500
Wire Wire Line
	15650 1500 15650 1400
Wire Wire Line
	15600 1600 15650 1600
Connection ~ 15650 1600
Wire Wire Line
	15650 1600 15650 1500
Wire Wire Line
	15600 1700 15650 1700
Connection ~ 15650 1700
Wire Wire Line
	15650 1700 15650 1600
Wire Wire Line
	15600 1800 15650 1800
Connection ~ 15650 1800
Wire Wire Line
	15650 1800 15650 1700
Wire Wire Line
	15600 1900 15650 1900
Connection ~ 15650 1900
Wire Wire Line
	15650 1900 15650 1800
Wire Wire Line
	15600 2000 15650 2000
Connection ~ 15650 2000
Wire Wire Line
	15650 2000 15650 1900
Wire Wire Line
	15600 2100 15650 2100
Connection ~ 15650 2100
Wire Wire Line
	15650 2100 15650 2000
Wire Wire Line
	15600 2200 15650 2200
Connection ~ 15650 2200
Wire Wire Line
	15650 2200 15650 2100
Wire Wire Line
	15600 2300 15650 2300
Connection ~ 15650 2300
Wire Wire Line
	15650 2300 15650 2200
Wire Wire Line
	15600 2400 15650 2400
Connection ~ 15650 2400
Wire Wire Line
	15650 2400 15650 2300
Wire Wire Line
	15600 2500 15650 2500
Connection ~ 15650 2500
Wire Wire Line
	15650 2500 15650 2400
Wire Wire Line
	15600 2600 15650 2600
Connection ~ 15650 2600
Wire Wire Line
	15650 2600 15650 2500
Wire Wire Line
	15600 2700 15650 2700
Connection ~ 15650 2700
Wire Wire Line
	15650 2700 15650 2600
Wire Wire Line
	15600 2800 15650 2800
Connection ~ 15650 2800
Wire Wire Line
	15650 2800 15650 2700
Wire Wire Line
	15600 2900 15650 2900
Connection ~ 15650 2900
Wire Wire Line
	15650 2900 15650 2800
Wire Wire Line
	15600 3000 15650 3000
Connection ~ 15650 3000
Wire Wire Line
	15650 3000 15650 2900
Wire Wire Line
	15600 3100 15650 3100
Connection ~ 15650 3100
Wire Wire Line
	15650 3100 15650 3000
Wire Wire Line
	15600 3200 15650 3200
Connection ~ 15650 3200
Wire Wire Line
	15650 3200 15650 3100
Wire Wire Line
	15600 3300 15650 3300
Connection ~ 15650 3300
Wire Wire Line
	15650 3300 15650 3200
Wire Wire Line
	15600 3400 15650 3400
Connection ~ 15650 3400
Wire Wire Line
	15650 3400 15650 3300
Wire Wire Line
	15600 3500 15650 3500
Connection ~ 15650 3500
Wire Wire Line
	15650 3500 15650 3400
$Comp
L EN5329QI:EN5329QI IC1
U 1 1 5CA411A1
P 3850 10100
F 0 "IC1" H 4600 8635 50  0000 C CNN
F 1 "EN5329QI" H 4600 8726 50  0000 C CNN
F 2 "myfootprints:EN5339QI" H 5200 10200 50  0001 L CNN
F 3 "https://www.mouser.com/ds/2/612/EN5329QI_08326-1098924.pdf" H 5200 10100 50  0001 L CNN
	1    3850 10100
	-1   0    0    1   
$EndComp
Wire Wire Line
	3850 9000 3950 9000
Wire Wire Line
	3950 9000 3950 9100
Wire Wire Line
	3950 9200 3850 9200
Wire Wire Line
	3950 9200 4100 9200
Connection ~ 3950 9200
Wire Wire Line
	3850 9100 3950 9100
Connection ~ 3950 9100
Wire Wire Line
	3950 9100 3950 9200
$Comp
L power:+3V3 #PWR0103
U 1 1 5CA4FF03
P 4100 9200
F 0 "#PWR0103" H 4100 9050 50  0001 C CNN
F 1 "+3V3" V 4115 9328 50  0000 L CNN
F 2 "" H 4100 9200 50  0001 C CNN
F 3 "" H 4100 9200 50  0001 C CNN
	1    4100 9200
	0    1    1    0   
$EndComp
Wire Wire Line
	3850 9300 3950 9300
Wire Wire Line
	3950 9300 3950 9400
Wire Wire Line
	3850 9400 3950 9400
Connection ~ 3950 9400
Wire Wire Line
	3950 9400 3950 9900
Wire Wire Line
	3850 9900 3950 9900
Connection ~ 3950 9900
Wire Wire Line
	3950 9900 3950 10000
Wire Wire Line
	3850 10000 3950 10000
Connection ~ 3950 10000
Wire Wire Line
	3950 10000 3950 10650
$Comp
L power:GND #PWR0104
U 1 1 5CA5F0F3
P 3950 10650
F 0 "#PWR0104" H 3950 10400 50  0001 C CNN
F 1 "GND" H 3955 10477 50  0000 C CNN
F 2 "" H 3950 10650 50  0001 C CNN
F 3 "" H 3950 10650 50  0001 C CNN
	1    3950 10650
	1    0    0    -1  
$EndComp
Wire Wire Line
	2350 8900 2200 8900
Wire Wire Line
	2200 8900 2200 9000
$Comp
L power:GND #PWR0105
U 1 1 5CA65D80
P 2200 10450
F 0 "#PWR0105" H 2200 10200 50  0001 C CNN
F 1 "GND" H 2205 10277 50  0000 C CNN
F 2 "" H 2200 10450 50  0001 C CNN
F 3 "" H 2200 10450 50  0001 C CNN
	1    2200 10450
	1    0    0    -1  
$EndComp
Wire Wire Line
	2200 9000 2350 9000
Connection ~ 2200 9000
Wire Wire Line
	2200 9000 2200 10000
Wire Wire Line
	2350 10000 2200 10000
Connection ~ 2200 10000
Wire Wire Line
	2200 10000 2200 10450
$Comp
L Device:C C2
U 1 1 5CA6E979
P 1950 10200
F 0 "C2" H 1965 10280 50  0000 L CNN
F 1 "1µ" H 1960 10120 50  0000 L CNN
F 2 "Capacitor_SMD:C_0805_2012Metric" H 1988 10050 50  0001 C CNN
F 3 "~" H 1950 10200 50  0001 C CNN
	1    1950 10200
	1    0    0    -1  
$EndComp
$Comp
L power:GND #PWR0106
U 1 1 5CA6ECD2
P 1950 10450
F 0 "#PWR0106" H 1950 10200 50  0001 C CNN
F 1 "GND" H 1955 10277 50  0000 C CNN
F 2 "" H 1950 10450 50  0001 C CNN
F 3 "" H 1950 10450 50  0001 C CNN
	1    1950 10450
	1    0    0    -1  
$EndComp
Wire Wire Line
	1950 10450 1950 10350
Wire Wire Line
	1950 10050 1950 9900
Wire Wire Line
	1950 9900 2350 9900
Wire Wire Line
	1950 9900 1950 9700
Wire Wire Line
	1950 9500 2350 9500
Connection ~ 1950 9900
Wire Wire Line
	2350 9600 1950 9600
Connection ~ 1950 9600
Wire Wire Line
	1950 9600 1950 9500
Wire Wire Line
	2350 9700 1950 9700
Connection ~ 1950 9700
Wire Wire Line
	1950 9700 1950 9600
$Comp
L Device:C C1
U 1 1 5CA85B27
P 1650 10200
F 0 "C1" H 1665 10285 50  0000 L CNN
F 1 "22µ" H 1665 10110 50  0000 L CNN
F 2 "Capacitor_SMD:C_1206_3216Metric" H 1688 10050 50  0001 C CNN
F 3 "~" H 1650 10200 50  0001 C CNN
	1    1650 10200
	1    0    0    -1  
$EndComp
Wire Wire Line
	1650 10050 1650 9600
Wire Wire Line
	1650 9600 1950 9600
Wire Wire Line
	1650 9600 1400 9600
Connection ~ 1650 9600
$Comp
L power:+3V3 #PWR0107
U 1 1 5CA9124E
P 1400 9600
F 0 "#PWR0107" H 1400 9450 50  0001 C CNN
F 1 "+3V3" V 1415 9728 50  0000 L CNN
F 2 "" H 1400 9600 50  0001 C CNN
F 3 "" H 1400 9600 50  0001 C CNN
	1    1400 9600
	0    -1   -1   0   
$EndComp
$Comp
L power:GND #PWR0108
U 1 1 5CA91350
P 1650 10450
F 0 "#PWR0108" H 1650 10200 50  0001 C CNN
F 1 "GND" H 1655 10277 50  0000 C CNN
F 2 "" H 1650 10450 50  0001 C CNN
F 3 "" H 1650 10450 50  0001 C CNN
	1    1650 10450
	1    0    0    -1  
$EndComp
Wire Wire Line
	1650 10450 1650 10350
Wire Wire Line
	3850 9800 4150 9800
Wire Wire Line
	3850 9500 4150 9500
Wire Wire Line
	4150 9500 4150 9600
Connection ~ 4150 9800
Wire Wire Line
	4150 9800 4400 9800
Wire Wire Line
	3850 9600 4150 9600
Connection ~ 4150 9600
Wire Wire Line
	4150 9600 4150 9700
Wire Wire Line
	3850 9700 4150 9700
Connection ~ 4150 9700
Wire Wire Line
	4150 9700 4150 9800
$Comp
L Device:C C5
U 1 1 5CAAD72F
P 4900 10150
F 0 "C5" H 4910 10245 50  0000 L CNN
F 1 "22µ" H 4915 10070 50  0000 L CNN
F 2 "Capacitor_SMD:C_0603_1608Metric" H 4938 10000 50  0001 C CNN
F 3 "~" H 4900 10150 50  0001 C CNN
	1    4900 10150
	1    0    0    -1  
$EndComp
$Comp
L Device:C C4
U 1 1 5CAADDD4
P 4650 10150
F 0 "C4" H 4655 10235 50  0000 L CNN
F 1 "22µ" H 4655 10065 50  0000 L CNN
F 2 "Capacitor_SMD:C_0603_1608Metric" H 4688 10000 50  0001 C CNN
F 3 "~" H 4650 10150 50  0001 C CNN
	1    4650 10150
	1    0    0    -1  
$EndComp
$Comp
L Device:R R1
U 1 1 5CAAED74
P 4400 10050
F 0 "R1" H 4470 10096 50  0000 L CNN
F 1 "348k" H 4470 10005 50  0000 L CNN
F 2 "Resistor_SMD:R_0603_1608Metric" V 4330 10050 50  0001 C CNN
F 3 "~" H 4400 10050 50  0001 C CNN
	1    4400 10050
	1    0    0    -1  
$EndComp
$Comp
L Device:R R2
U 1 1 5CAAEEB6
P 4400 10450
F 0 "R2" H 4470 10496 50  0000 L CNN
F 1 "523k" H 4470 10405 50  0000 L CNN
F 2 "Resistor_SMD:R_0603_1608Metric" V 4330 10450 50  0001 C CNN
F 3 "~" H 4400 10450 50  0001 C CNN
	1    4400 10450
	1    0    0    -1  
$EndComp
$Comp
L power:GND #PWR0109
U 1 1 5CAB4A26
P 4400 10650
F 0 "#PWR0109" H 4400 10400 50  0001 C CNN
F 1 "GND" H 4405 10477 50  0000 C CNN
F 2 "" H 4400 10650 50  0001 C CNN
F 3 "" H 4400 10650 50  0001 C CNN
	1    4400 10650
	1    0    0    -1  
$EndComp
Wire Wire Line
	4400 10650 4400 10600
Wire Wire Line
	4400 10300 4400 10250
Wire Wire Line
	4400 9900 4400 9800
Connection ~ 4400 9800
Wire Wire Line
	4400 9800 4650 9800
Wire Wire Line
	2350 10100 2300 10100
Wire Wire Line
	2300 10100 2300 10250
Wire Wire Line
	2300 10250 4150 10250
Connection ~ 4400 10250
Wire Wire Line
	4400 10250 4400 10200
$Comp
L Device:C C3
U 1 1 5CAD45A4
P 4150 10050
F 0 "C3" H 4035 10125 50  0000 L CNN
F 1 "8.2p" H 4030 9975 50  0000 L CNN
F 2 "Capacitor_SMD:C_0603_1608Metric" H 4188 9900 50  0001 C CNN
F 3 "~" H 4150 10050 50  0001 C CNN
	1    4150 10050
	1    0    0    -1  
$EndComp
Wire Wire Line
	4150 9800 4150 9900
Wire Wire Line
	4150 10200 4150 10250
Connection ~ 4150 10250
Wire Wire Line
	4150 10250 4400 10250
Wire Wire Line
	4650 9800 4650 10000
Connection ~ 4650 9800
Wire Wire Line
	4650 9800 4900 9800
$Comp
L power:GND #PWR0110
U 1 1 5CAF5B33
P 4650 10650
F 0 "#PWR0110" H 4650 10400 50  0001 C CNN
F 1 "GND" H 4655 10477 50  0000 C CNN
F 2 "" H 4650 10650 50  0001 C CNN
F 3 "" H 4650 10650 50  0001 C CNN
	1    4650 10650
	1    0    0    -1  
$EndComp
Wire Wire Line
	4650 10650 4650 10300
$Comp
L power:GND #PWR0111
U 1 1 5CAFD373
P 4900 10650
F 0 "#PWR0111" H 4900 10400 50  0001 C CNN
F 1 "GND" H 4905 10477 50  0000 C CNN
F 2 "" H 4900 10650 50  0001 C CNN
F 3 "" H 4900 10650 50  0001 C CNN
	1    4900 10650
	1    0    0    -1  
$EndComp
Wire Wire Line
	4900 10650 4900 10300
Wire Wire Line
	4900 10000 4900 9800
$Comp
L power:+1V0 #PWR0112
U 1 1 5CB0D375
P 4900 9700
F 0 "#PWR0112" H 4900 9550 50  0001 C CNN
F 1 "+1V0" H 4915 9873 50  0000 C CNN
F 2 "" H 4900 9700 50  0001 C CNN
F 3 "" H 4900 9700 50  0001 C CNN
	1    4900 9700
	1    0    0    -1  
$EndComp
Wire Wire Line
	4900 9700 4900 9800
Connection ~ 4900 9800
$Comp
L power:+1V0 #PWR0113
U 1 1 5CB27624
P 13250 1000
F 0 "#PWR0113" H 13250 850 50  0001 C CNN
F 1 "+1V0" V 13265 1128 50  0000 L CNN
F 2 "" H 13250 1000 50  0001 C CNN
F 3 "" H 13250 1000 50  0001 C CNN
	1    13250 1000
	0    -1   -1   0   
$EndComp
Wire Wire Line
	13250 1000 13350 1000
Wire Wire Line
	13350 1000 13350 1100
Wire Wire Line
	13350 1900 13400 1900
Connection ~ 13350 1000
Wire Wire Line
	13350 1000 13400 1000
Wire Wire Line
	13400 1800 13350 1800
Connection ~ 13350 1800
Wire Wire Line
	13350 1800 13350 1900
Wire Wire Line
	13400 1700 13350 1700
Connection ~ 13350 1700
Wire Wire Line
	13350 1700 13350 1800
Wire Wire Line
	13400 1600 13350 1600
Connection ~ 13350 1600
Wire Wire Line
	13350 1600 13350 1700
Wire Wire Line
	13400 1500 13350 1500
Connection ~ 13350 1500
Wire Wire Line
	13350 1500 13350 1600
Wire Wire Line
	13400 1400 13350 1400
Connection ~ 13350 1400
Wire Wire Line
	13350 1400 13350 1500
Wire Wire Line
	13400 1300 13350 1300
Connection ~ 13350 1300
Wire Wire Line
	13350 1300 13350 1400
Wire Wire Line
	13400 1200 13350 1200
Connection ~ 13350 1200
Wire Wire Line
	13350 1200 13350 1300
Wire Wire Line
	13400 1100 13350 1100
Connection ~ 13350 1100
Wire Wire Line
	13350 1100 13350 1200
Wire Wire Line
	13200 2100 13350 2100
Wire Wire Line
	13400 2400 13350 2400
Wire Wire Line
	13350 2400 13350 2300
Connection ~ 13350 2100
Wire Wire Line
	13350 2100 13400 2100
Wire Wire Line
	13350 2200 13400 2200
Connection ~ 13350 2200
Wire Wire Line
	13350 2200 13350 2100
Wire Wire Line
	13350 2300 13400 2300
Connection ~ 13350 2300
Wire Wire Line
	13350 2300 13350 2200
$Comp
L power:+1V0 #PWR0115
U 1 1 5CBA8E90
P 13200 3500
F 0 "#PWR0115" H 13200 3350 50  0001 C CNN
F 1 "+1V0" V 13215 3628 50  0000 L CNN
F 2 "" H 13200 3500 50  0001 C CNN
F 3 "" H 13200 3500 50  0001 C CNN
	1    13200 3500
	0    -1   -1   0   
$EndComp
Wire Wire Line
	13200 3500 13350 3500
Wire Wire Line
	13400 3700 13350 3700
Wire Wire Line
	13350 3700 13350 3600
Connection ~ 13350 3500
Wire Wire Line
	13350 3500 13400 3500
Wire Wire Line
	13350 3600 13400 3600
Connection ~ 13350 3600
Wire Wire Line
	13350 3600 13350 3500
$Comp
L power:+3V3 #PWR0116
U 1 1 5CBCB613
P 13200 2600
F 0 "#PWR0116" H 13200 2450 50  0001 C CNN
F 1 "+3V3" V 13215 2728 50  0000 L CNN
F 2 "" H 13200 2600 50  0001 C CNN
F 3 "" H 13200 2600 50  0001 C CNN
	1    13200 2600
	0    -1   -1   0   
$EndComp
Wire Wire Line
	13200 2600 13350 2600
Wire Wire Line
	13400 3300 13350 3300
Wire Wire Line
	13350 3300 13350 3200
Connection ~ 13350 2600
Wire Wire Line
	13350 2600 13400 2600
Wire Wire Line
	13400 2700 13350 2700
Connection ~ 13350 2700
Wire Wire Line
	13350 2700 13350 2600
Wire Wire Line
	13400 2800 13350 2800
Connection ~ 13350 2800
Wire Wire Line
	13350 2800 13350 2700
Wire Wire Line
	13400 2900 13350 2900
Connection ~ 13350 2900
Wire Wire Line
	13350 2900 13350 2800
Wire Wire Line
	13400 3000 13350 3000
Connection ~ 13350 3000
Wire Wire Line
	13350 3000 13350 2900
Wire Wire Line
	13400 3100 13350 3100
Connection ~ 13350 3100
Wire Wire Line
	13350 3100 13350 3000
Wire Wire Line
	13400 3200 13350 3200
Connection ~ 13350 3200
Wire Wire Line
	13350 3200 13350 3100
$Comp
L mylib:ATECC608A U3
U 1 1 5C91AD06
P 2400 7500
F 0 "U3" H 2250 7050 50  0000 C CNN
F 1 "ATECC608A" H 2400 7150 50  0000 C CNN
F 2 "Package_DFN_QFN:DFN-8-1EP_3x2mm_P0.5mm_EP1.3x1.5mm" H 2250 7550 50  0001 C CNN
F 3 "" H 2250 7550 50  0001 C CNN
	1    2400 7500
	1    0    0    -1  
$EndComp
$Comp
L power:+3V3 #PWR0117
U 1 1 5C91EB9A
P 2850 7100
F 0 "#PWR0117" H 2850 6950 50  0001 C CNN
F 1 "+3V3" H 2865 7273 50  0000 C CNN
F 2 "" H 2850 7100 50  0001 C CNN
F 3 "" H 2850 7100 50  0001 C CNN
	1    2850 7100
	1    0    0    -1  
$EndComp
$Comp
L power:GND #PWR0118
U 1 1 5C91EF9C
P 2000 7800
F 0 "#PWR0118" H 2000 7550 50  0001 C CNN
F 1 "GND" H 2005 7627 50  0000 C CNN
F 2 "" H 2000 7800 50  0001 C CNN
F 3 "" H 2000 7800 50  0001 C CNN
	1    2000 7800
	1    0    0    -1  
$EndComp
Wire Wire Line
	2000 7800 2000 7700
Wire Wire Line
	2000 7700 2100 7700
Wire Wire Line
	2750 7400 2850 7400
Wire Wire Line
	2850 7400 2850 7150
Wire Wire Line
	2750 7600 3050 7600
Wire Wire Line
	2750 7700 3150 7700
Text Label 3250 7600 0    50   ~ 0
I2C_SCL
Text Label 3250 7700 0    50   ~ 0
I2C_SDA
$Comp
L Device:R R9
U 1 1 5C96E91E
P 3050 7350
F 0 "R9" H 2900 7295 50  0000 L CNN
F 1 "1k5" H 2905 7210 50  0000 L CNN
F 2 "Resistor_SMD:R_0402_1005Metric" V 2980 7350 50  0001 C CNN
F 3 "~" H 3050 7350 50  0001 C CNN
	1    3050 7350
	1    0    0    -1  
$EndComp
$Comp
L Device:R R10
U 1 1 5C96ECD1
P 3150 7350
F 0 "R10" H 3205 7325 50  0000 L CNN
F 1 "1k5" H 3215 7245 50  0000 L CNN
F 2 "Resistor_SMD:R_0402_1005Metric" V 3080 7350 50  0001 C CNN
F 3 "~" H 3150 7350 50  0001 C CNN
	1    3150 7350
	1    0    0    -1  
$EndComp
Wire Wire Line
	3050 7500 3050 7600
Connection ~ 3050 7600
Wire Wire Line
	3050 7600 3400 7600
Wire Wire Line
	3150 7500 3150 7700
Connection ~ 3150 7700
Wire Wire Line
	3150 7700 3400 7700
$Comp
L power:+3V3 #PWR0119
U 1 1 5C997880
P 3050 7100
F 0 "#PWR0119" H 3050 6950 50  0001 C CNN
F 1 "+3V3" H 3065 7273 50  0000 C CNN
F 2 "" H 3050 7100 50  0001 C CNN
F 3 "" H 3050 7100 50  0001 C CNN
	1    3050 7100
	1    0    0    -1  
$EndComp
$Comp
L power:+3V3 #PWR0120
U 1 1 5C9A5537
P 3150 7100
F 0 "#PWR0120" H 3150 6950 50  0001 C CNN
F 1 "+3V3" H 3165 7273 50  0000 C CNN
F 2 "" H 3150 7100 50  0001 C CNN
F 3 "" H 3150 7100 50  0001 C CNN
	1    3150 7100
	1    0    0    -1  
$EndComp
Wire Wire Line
	3050 7100 3050 7200
Wire Wire Line
	3150 7100 3150 7200
$Comp
L Device:C C8
U 1 1 5C9CE847
P 2400 7150
F 0 "C8" V 2148 7150 50  0000 C CNN
F 1 "100n" V 2239 7150 50  0000 C CNN
F 2 "Capacitor_SMD:C_0402_1005Metric" H 2438 7000 50  0001 C CNN
F 3 "~" H 2400 7150 50  0001 C CNN
	1    2400 7150
	0    1    1    0   
$EndComp
Wire Wire Line
	2250 7150 2000 7150
Wire Wire Line
	2000 7150 2000 7700
Connection ~ 2000 7700
Wire Wire Line
	2550 7150 2850 7150
Connection ~ 2850 7150
Wire Wire Line
	2850 7150 2850 7100
$Comp
L power:+3V3 #PWR0121
U 1 1 5C92F9F0
P 11200 8050
F 0 "#PWR0121" H 11200 7900 50  0001 C CNN
F 1 "+3V3" V 11215 8178 50  0000 L CNN
F 2 "" H 11200 8050 50  0001 C CNN
F 3 "" H 11200 8050 50  0001 C CNN
	1    11200 8050
	0    1    -1   0   
$EndComp
Wire Wire Line
	10950 8050 11200 8050
$Comp
L power:GND #PWR0122
U 1 1 5C93F4CF
P 11250 8150
F 0 "#PWR0122" H 11250 7900 50  0001 C CNN
F 1 "GND" V 11255 8022 50  0000 R CNN
F 2 "" H 11250 8150 50  0001 C CNN
F 3 "" H 11250 8150 50  0001 C CNN
	1    11250 8150
	0    -1   -1   0   
$EndComp
Text Label 12050 7550 0    50   ~ 0
TMS
Text Label 12050 7650 0    50   ~ 0
TCK
Text Label 12050 7750 0    50   ~ 0
TDI
Text Label 12050 7850 0    50   ~ 0
TDO
Wire Wire Line
	10950 8450 11000 8450
$Comp
L mylib:XC7S50 U1
U 2 1 5C96447A
P 8750 1050
F 0 "U1" H 10078 -54 50  0000 L CNN
F 1 "XC7S50" H 10078 -145 50  0000 L CNN
F 2 "myfootprints:FTGB196" H 7950 1050 50  0001 C CNN
F 3 "" H 7950 1050 50  0001 C CNN
	2    8750 1050
	1    0    0    -1  
$EndComp
Wire Wire Line
	8650 1050 8250 1050
Text Label 8550 1050 2    50   ~ 0
FLASH_D00
Wire Wire Line
	8650 1150 8250 1150
Wire Wire Line
	8650 1250 8250 1250
Wire Wire Line
	8650 1350 8250 1350
Text Label 8550 1150 2    50   ~ 0
FLASH_D01
Text Label 8550 1250 2    50   ~ 0
FLASH_DO2
Text Label 8550 1350 2    50   ~ 0
FLASH_D03
Text Label 12050 8450 0    50   ~ 0
FLASH_CCLK
Wire Wire Line
	8650 2050 8250 2050
Text Label 8600 2050 2    50   ~ 0
FLASH_CS
$Comp
L power:+3V3 #PWR0123
U 1 1 5CA689D7
P 9450 9150
F 0 "#PWR0123" H 9450 9000 50  0001 C CNN
F 1 "+3V3" V 9465 9278 50  0000 L CNN
F 2 "" H 9450 9150 50  0001 C CNN
F 3 "" H 9450 9150 50  0001 C CNN
	1    9450 9150
	0    -1   -1   0   
$EndComp
Wire Wire Line
	9450 9150 9750 9150
$Comp
L Device:R R4
U 1 1 5CA7C074
P 11400 7200
F 0 "R4" H 11255 7260 50  0000 L CNN
F 1 "10k" H 11260 7335 50  0000 L CNN
F 2 "Resistor_SMD:R_0402_1005Metric" V 11330 7200 50  0001 C CNN
F 3 "~" H 11400 7200 50  0001 C CNN
	1    11400 7200
	1    0    0    -1  
$EndComp
$Comp
L Device:R R5
U 1 1 5CA7C403
P 11500 7200
F 0 "R5" H 11535 7145 50  0000 L CNN
F 1 "10k" H 11500 7065 50  0000 L CNN
F 2 "Resistor_SMD:R_0402_1005Metric" V 11430 7200 50  0001 C CNN
F 3 "~" H 11500 7200 50  0001 C CNN
	1    11500 7200
	1    0    0    -1  
$EndComp
Wire Wire Line
	11400 7550 11400 7350
Wire Wire Line
	10950 7550 11400 7550
Wire Wire Line
	11500 7650 11500 7350
Wire Wire Line
	10950 7650 11500 7650
Connection ~ 11400 7550
Connection ~ 11500 7650
$Comp
L power:+3V3 #PWR0124
U 1 1 5CAEEA20
P 11400 7050
F 0 "#PWR0124" H 11400 6900 50  0001 C CNN
F 1 "+3V3" V 11390 7265 50  0000 C CNN
F 2 "" H 11400 7050 50  0001 C CNN
F 3 "" H 11400 7050 50  0001 C CNN
	1    11400 7050
	1    0    0    -1  
$EndComp
$Comp
L power:+3V3 #PWR0125
U 1 1 5CAEEDE7
P 11500 7050
F 0 "#PWR0125" H 11500 6900 50  0001 C CNN
F 1 "+3V3" V 11495 7265 50  0000 C CNN
F 2 "" H 11500 7050 50  0001 C CNN
F 3 "" H 11500 7050 50  0001 C CNN
	1    11500 7050
	1    0    0    -1  
$EndComp
$Comp
L Device:R R6
U 1 1 5CAEEF8A
P 11700 7200
F 0 "R6" H 11560 7280 50  0000 L CNN
F 1 "4k7" H 11560 7340 50  0000 L CNN
F 2 "Resistor_SMD:R_0402_1005Metric" V 11630 7200 50  0001 C CNN
F 3 "~" H 11700 7200 50  0001 C CNN
	1    11700 7200
	1    0    0    -1  
$EndComp
Wire Wire Line
	10950 8650 11700 8650
$Comp
L power:+3V3 #PWR0126
U 1 1 5CB63C50
P 11700 7050
F 0 "#PWR0126" H 11700 6900 50  0001 C CNN
F 1 "+3V3" V 11690 7255 50  0000 C CNN
F 2 "" H 11700 7050 50  0001 C CNN
F 3 "" H 11700 7050 50  0001 C CNN
	1    11700 7050
	1    0    0    -1  
$EndComp
Text Label 12050 8650 0    50   ~ 0
PROGRAM
$Comp
L Device:R R7
U 1 1 5CB64C6D
P 11800 7200
F 0 "R7" H 11845 7125 50  0000 L CNN
F 1 "4k7" H 11805 7055 50  0000 L CNN
F 2 "Resistor_SMD:R_0402_1005Metric" V 11730 7200 50  0001 C CNN
F 3 "~" H 11800 7200 50  0001 C CNN
	1    11800 7200
	1    0    0    -1  
$EndComp
Wire Wire Line
	10950 8750 11800 8750
Wire Wire Line
	11800 7350 11800 8750
$Comp
L power:+3V3 #PWR0127
U 1 1 5CC22055
P 11800 7050
F 0 "#PWR0127" H 11800 6900 50  0001 C CNN
F 1 "+3V3" V 11790 7245 50  0000 C CNN
F 2 "" H 11800 7050 50  0001 C CNN
F 3 "" H 11800 7050 50  0001 C CNN
	1    11800 7050
	1    0    0    -1  
$EndComp
Text Label 12050 8550 0    50   ~ 0
DONE
$Comp
L Device:R R3
U 1 1 5CC6432E
P 11150 8450
F 0 "R3" V 11065 8375 50  0000 C CNN
F 1 "33R" V 11065 8545 50  0000 C CNN
F 2 "Resistor_SMD:R_0402_1005Metric" V 11080 8450 50  0001 C CNN
F 3 "~" H 11150 8450 50  0001 C CNN
	1    11150 8450
	0    1    1    0   
$EndComp
$Comp
L Device:R R8
U 1 1 5CCF61E8
P 8350 1450
F 0 "R8" V 8435 1395 50  0000 C CNN
F 1 "1k" V 8435 1535 50  0000 C CNN
F 2 "Resistor_SMD:R_0402_1005Metric" V 8280 1450 50  0001 C CNN
F 3 "~" H 8350 1450 50  0001 C CNN
	1    8350 1450
	0    1    1    0   
$EndComp
$Comp
L power:+3V3 #PWR0128
U 1 1 5CCF6949
P 8100 1450
F 0 "#PWR0128" H 8100 1300 50  0001 C CNN
F 1 "+3V3" V 8115 1578 50  0000 L CNN
F 2 "" H 8100 1450 50  0001 C CNN
F 3 "" H 8100 1450 50  0001 C CNN
	1    8100 1450
	0    -1   -1   0   
$EndComp
Wire Wire Line
	8100 1450 8200 1450
Wire Wire Line
	8500 1450 8650 1450
$Comp
L mylib:EP5388QI U2
U 1 1 5CD379C1
P 6950 9950
F 0 "U2" H 6925 10465 50  0000 C CNN
F 1 "EP5388QI" H 6925 10374 50  0000 C CNN
F 2 "myfootprints:EP5388QI" H 6700 10000 50  0001 C CNN
F 3 "" H 6700 10000 50  0001 C CNN
	1    6950 9950
	1    0    0    -1  
$EndComp
$Comp
L power:+3V3 #PWR0129
U 1 1 5CD60F5F
P 6350 10200
F 0 "#PWR0129" H 6350 10050 50  0001 C CNN
F 1 "+3V3" V 6365 10328 50  0000 L CNN
F 2 "" H 6350 10200 50  0001 C CNN
F 3 "" H 6350 10200 50  0001 C CNN
	1    6350 10200
	0    -1   -1   0   
$EndComp
$Comp
L power:GND #PWR0130
U 1 1 5CD62671
P 6350 10100
F 0 "#PWR0130" H 6350 9850 50  0001 C CNN
F 1 "GND" V 6355 9972 50  0000 R CNN
F 2 "" H 6350 10100 50  0001 C CNN
F 3 "" H 6350 10100 50  0001 C CNN
	1    6350 10100
	0    1    1    0   
$EndComp
$Comp
L power:GND #PWR0131
U 1 1 5CD6285E
P 6350 10300
F 0 "#PWR0131" H 6350 10050 50  0001 C CNN
F 1 "GND" V 6355 10172 50  0000 R CNN
F 2 "" H 6350 10300 50  0001 C CNN
F 3 "" H 6350 10300 50  0001 C CNN
	1    6350 10300
	0    1    1    0   
$EndComp
Wire Wire Line
	6350 10300 6400 10300
Wire Wire Line
	6350 10200 6400 10200
Wire Wire Line
	6350 10100 6400 10100
$Comp
L power:GND #PWR0132
U 1 1 5CDA0350
P 6950 10650
F 0 "#PWR0132" H 6950 10400 50  0001 C CNN
F 1 "GND" H 6955 10477 50  0000 C CNN
F 2 "" H 6950 10650 50  0001 C CNN
F 3 "" H 6950 10650 50  0001 C CNN
	1    6950 10650
	1    0    0    -1  
$EndComp
Wire Wire Line
	6850 10500 6850 10550
Wire Wire Line
	6850 10550 6950 10550
Wire Wire Line
	6950 10550 6950 10650
Wire Wire Line
	6950 10500 6950 10550
Connection ~ 6950 10550
Wire Wire Line
	7050 10500 7050 10550
Wire Wire Line
	7050 10550 6950 10550
Wire Wire Line
	7450 9900 7550 9900
Wire Wire Line
	7550 9900 7550 9800
Wire Wire Line
	7550 9800 7450 9800
Wire Wire Line
	7550 9800 7800 9800
Connection ~ 7550 9800
$Comp
L power:+1V8 #PWR0133
U 1 1 5CE0C1E2
P 7800 9700
F 0 "#PWR0133" H 7800 9550 50  0001 C CNN
F 1 "+1V8" H 7815 9873 50  0000 C CNN
F 2 "" H 7800 9700 50  0001 C CNN
F 3 "" H 7800 9700 50  0001 C CNN
	1    7800 9700
	1    0    0    -1  
$EndComp
Wire Wire Line
	7800 9700 7800 9800
Wire Wire Line
	7450 9700 7550 9700
Wire Wire Line
	7550 9700 7550 9800
Wire Wire Line
	6400 9700 6250 9700
Wire Wire Line
	6250 9700 6250 9800
Wire Wire Line
	6250 9800 6400 9800
Wire Wire Line
	6250 9800 5850 9800
Connection ~ 6250 9800
$Comp
L power:+3V3 #PWR0134
U 1 1 5CE67B19
P 5850 9700
F 0 "#PWR0134" H 5850 9550 50  0001 C CNN
F 1 "+3V3" H 5865 9873 50  0000 C CNN
F 2 "" H 5850 9700 50  0001 C CNN
F 3 "" H 5850 9700 50  0001 C CNN
	1    5850 9700
	1    0    0    -1  
$EndComp
Wire Wire Line
	5850 9700 5850 9800
$Comp
L Device:C C6
U 1 1 5CE7FF21
P 5850 10050
F 0 "C6" H 5700 10150 50  0000 L CNN
F 1 "4µ7" H 5700 9950 50  0000 L CNN
F 2 "Capacitor_SMD:C_0603_1608Metric" H 5888 9900 50  0001 C CNN
F 3 "~" H 5850 10050 50  0001 C CNN
	1    5850 10050
	1    0    0    -1  
$EndComp
Wire Wire Line
	5850 9800 5850 9900
Connection ~ 5850 9800
$Comp
L power:GND #PWR0135
U 1 1 5CEC52EA
P 5850 10350
F 0 "#PWR0135" H 5850 10100 50  0001 C CNN
F 1 "GND" H 5855 10177 50  0000 C CNN
F 2 "" H 5850 10350 50  0001 C CNN
F 3 "" H 5850 10350 50  0001 C CNN
	1    5850 10350
	1    0    0    -1  
$EndComp
Wire Wire Line
	5850 10200 5850 10350
$Comp
L Device:C C7
U 1 1 5CEDD9B2
P 7800 10050
F 0 "C7" H 7650 10150 50  0000 L CNN
F 1 "47µ" H 7650 9950 50  0000 L CNN
F 2 "Capacitor_SMD:C_1206_3216Metric" H 7838 9900 50  0001 C CNN
F 3 "~" H 7800 10050 50  0001 C CNN
	1    7800 10050
	1    0    0    -1  
$EndComp
$Comp
L power:GND #PWR0136
U 1 1 5CEDE74B
P 7800 10350
F 0 "#PWR0136" H 7800 10100 50  0001 C CNN
F 1 "GND" H 7805 10177 50  0000 C CNN
F 2 "" H 7800 10350 50  0001 C CNN
F 3 "" H 7800 10350 50  0001 C CNN
	1    7800 10350
	1    0    0    -1  
$EndComp
Wire Wire Line
	7800 10350 7800 10200
Wire Wire Line
	7800 9900 7800 9800
Connection ~ 7800 9800
$Comp
L power:+1V8 #PWR0114
U 1 1 5CF8B85A
P 13200 2100
F 0 "#PWR0114" H 13200 1950 50  0001 C CNN
F 1 "+1V8" H 13215 2273 50  0000 C CNN
F 2 "" H 13200 2100 50  0001 C CNN
F 3 "" H 13200 2100 50  0001 C CNN
	1    13200 2100
	1    0    0    -1  
$EndComp
$Comp
L power:+1V8 #PWR0137
U 1 1 5CF8BDB6
P 9650 7450
F 0 "#PWR0137" H 9650 7300 50  0001 C CNN
F 1 "+1V8" H 9665 7623 50  0000 C CNN
F 2 "" H 9650 7450 50  0001 C CNN
F 3 "" H 9650 7450 50  0001 C CNN
	1    9650 7450
	1    0    0    -1  
$EndComp
Wire Wire Line
	9650 7550 9750 7550
Wire Wire Line
	9650 7450 9650 7550
$Comp
L power:GND #PWR0138
U 1 1 5CFA7406
P 9650 8100
F 0 "#PWR0138" H 9650 7850 50  0001 C CNN
F 1 "GND" H 9655 7927 50  0000 C CNN
F 2 "" H 9650 8100 50  0001 C CNN
F 3 "" H 9650 8100 50  0001 C CNN
	1    9650 8100
	0    1    1    0   
$EndComp
Wire Wire Line
	9650 8100 9750 8100
$Comp
L power:GND #PWR0139
U 1 1 5D00AEBB
P 9650 8550
F 0 "#PWR0139" H 9650 8300 50  0001 C CNN
F 1 "GND" H 9655 8377 50  0000 C CNN
F 2 "" H 9650 8550 50  0001 C CNN
F 3 "" H 9650 8550 50  0001 C CNN
	1    9650 8550
	0    1    1    0   
$EndComp
Wire Wire Line
	9750 8550 9700 8550
Wire Wire Line
	9750 8650 9700 8650
Wire Wire Line
	9700 8650 9700 8550
Connection ~ 9700 8550
Wire Wire Line
	9700 8550 9650 8550
Wire Wire Line
	9750 8850 9700 8850
Wire Wire Line
	9700 8850 9700 8650
Connection ~ 9700 8650
Wire Wire Line
	9750 8950 9700 8950
Wire Wire Line
	9700 8950 9700 8850
Connection ~ 9700 8850
Wire Wire Line
	9750 8300 9700 8300
Wire Wire Line
	9700 8300 9700 8400
Wire Wire Line
	9750 8400 9700 8400
Connection ~ 9700 8400
Wire Wire Line
	9700 8400 9700 8550
Wire Wire Line
	9750 7650 9650 7650
Wire Wire Line
	9650 7650 9650 7550
Connection ~ 9650 7550
$Comp
L mylib:S25FL128SAGN U4
U 1 1 5D0E5162
P 2500 6050
F 0 "U4" H 2475 6425 50  0000 C CNN
F 1 "S25FL128SAGN" H 2475 6334 50  0000 C CNN
F 2 "myfootprints:WSON8-8x6" H 2150 6200 50  0001 C CNN
F 3 "" H 2150 6200 50  0001 C CNN
	1    2500 6050
	1    0    0    -1  
$EndComp
$Comp
L power:+3V3 #PWR0140
U 1 1 5D0E762C
P 3050 5800
F 0 "#PWR0140" H 3050 5650 50  0001 C CNN
F 1 "+3V3" H 3065 5973 50  0000 C CNN
F 2 "" H 3050 5800 50  0001 C CNN
F 3 "" H 3050 5800 50  0001 C CNN
	1    3050 5800
	1    0    0    -1  
$EndComp
Wire Wire Line
	3050 5800 3050 5900
Wire Wire Line
	3050 5900 2950 5900
$Comp
L power:GND #PWR0141
U 1 1 5D10455F
P 1900 6500
F 0 "#PWR0141" H 1900 6250 50  0001 C CNN
F 1 "GND" H 1905 6327 50  0000 C CNN
F 2 "" H 1900 6500 50  0001 C CNN
F 3 "" H 1900 6500 50  0001 C CNN
	1    1900 6500
	1    0    0    -1  
$EndComp
Wire Wire Line
	1900 6500 1900 6400
Wire Wire Line
	1900 6200 2000 6200
$Comp
L Device:C C9
U 1 1 5D121961
P 2500 6400
F 0 "C9" V 2550 6300 50  0000 C CNN
F 1 "100n" V 2550 6550 50  0000 C CNN
F 2 "Capacitor_SMD:C_0402_1005Metric" H 2538 6250 50  0001 C CNN
F 3 "~" H 2500 6400 50  0001 C CNN
	1    2500 6400
	0    1    1    0   
$EndComp
Wire Wire Line
	2350 6400 1900 6400
Connection ~ 1900 6400
Wire Wire Line
	1900 6400 1900 6200
Wire Wire Line
	2650 6400 3050 6400
Wire Wire Line
	3050 6400 3050 5900
Connection ~ 3050 5900
Wire Wire Line
	2000 5900 1900 5900
Text Label 3350 6200 0    50   ~ 0
FLASH_D00
Text Label 3350 6100 0    50   ~ 0
FLASH_CCLK
Text Label 3350 6000 0    50   ~ 0
FLASH_D03
Text Label 1450 5900 2    50   ~ 0
FLASH_CS
Text Label 1450 6000 2    50   ~ 0
FLASH_D01
Text Label 1450 6100 2    50   ~ 0
FLASH_DO2
$Comp
L Device:C C15
U 1 1 5D2F93A4
P 15000 5400
F 0 "C15" V 15050 5215 50  0000 L CNN
F 1 "47µ" V 15045 5445 50  0000 L CNN
F 2 "Capacitor_SMD:C_0805_2012Metric" H 15038 5250 50  0001 C CNN
F 3 "~" H 15000 5400 50  0001 C CNN
	1    15000 5400
	1    0    0    -1  
$EndComp
$Comp
L power:GND #PWR0161
U 1 1 5D2FA485
P 15000 5550
F 0 "#PWR0161" H 15000 5300 50  0001 C CNN
F 1 "GND" H 15005 5377 50  0000 C CNN
F 2 "" H 15000 5550 50  0001 C CNN
F 3 "" H 15000 5550 50  0001 C CNN
	1    15000 5550
	1    0    0    -1  
$EndComp
$Comp
L power:GND #PWR0162
U 1 1 5D2FA5E9
P 15200 5550
F 0 "#PWR0162" H 15200 5300 50  0001 C CNN
F 1 "GND" H 15205 5377 50  0000 C CNN
F 2 "" H 15200 5550 50  0001 C CNN
F 3 "" H 15200 5550 50  0001 C CNN
	1    15200 5550
	1    0    0    -1  
$EndComp
$Comp
L power:GND #PWR0163
U 1 1 5D2FA7BD
P 15400 5550
F 0 "#PWR0163" H 15400 5300 50  0001 C CNN
F 1 "GND" H 15405 5377 50  0000 C CNN
F 2 "" H 15400 5550 50  0001 C CNN
F 3 "" H 15400 5550 50  0001 C CNN
	1    15400 5550
	1    0    0    -1  
$EndComp
$Comp
L power:+1V0 #PWR0165
U 1 1 5D2FACA2
P 15000 5250
F 0 "#PWR0165" H 15000 5100 50  0001 C CNN
F 1 "+1V0" H 15015 5423 50  0000 C CNN
F 2 "" H 15000 5250 50  0001 C CNN
F 3 "" H 15000 5250 50  0001 C CNN
	1    15000 5250
	1    0    0    -1  
$EndComp
$Comp
L power:+1V0 #PWR0166
U 1 1 5D2FAEEB
P 15200 5250
F 0 "#PWR0166" H 15200 5100 50  0001 C CNN
F 1 "+1V0" H 15215 5423 50  0000 C CNN
F 2 "" H 15200 5250 50  0001 C CNN
F 3 "" H 15200 5250 50  0001 C CNN
	1    15200 5250
	1    0    0    -1  
$EndComp
$Comp
L power:+1V0 #PWR0167
U 1 1 5D2FC50D
P 15400 5250
F 0 "#PWR0167" H 15400 5100 50  0001 C CNN
F 1 "+1V0" H 15415 5423 50  0000 C CNN
F 2 "" H 15400 5250 50  0001 C CNN
F 3 "" H 15400 5250 50  0001 C CNN
	1    15400 5250
	1    0    0    -1  
$EndComp
$Comp
L Device:C C12
U 1 1 5D31EC6A
P 13850 5400
F 0 "C12" V 13890 5205 50  0000 L CNN
F 1 "47µ" V 13895 5445 50  0000 L CNN
F 2 "Capacitor_SMD:C_0805_2012Metric" H 13888 5250 50  0001 C CNN
F 3 "~" H 13850 5400 50  0001 C CNN
	1    13850 5400
	1    0    0    -1  
$EndComp
$Comp
L Device:C C16
U 1 1 5D31F803
P 14050 5400
F 0 "C16" V 14095 5200 50  0000 L CNN
F 1 "4.7µ" V 14090 5435 50  0000 L CNN
F 2 "Capacitor_SMD:C_0805_2012Metric" H 14088 5250 50  0001 C CNN
F 3 "~" H 14050 5400 50  0001 C CNN
	1    14050 5400
	1    0    0    -1  
$EndComp
$Comp
L Device:C C20
U 1 1 5D31FD1C
P 14250 5400
F 0 "C20" V 14295 5200 50  0000 L CNN
F 1 "100n" V 14295 5440 50  0000 L CNN
F 2 "Capacitor_SMD:C_0402_1005Metric" H 14288 5250 50  0001 C CNN
F 3 "~" H 14250 5400 50  0001 C CNN
	1    14250 5400
	1    0    0    -1  
$EndComp
$Comp
L Device:C C24
U 1 1 5D32003E
P 14450 5400
F 0 "C24" V 14495 5205 50  0000 L CNN
F 1 "100n" V 14500 5435 50  0000 L CNN
F 2 "Capacitor_SMD:C_0402_1005Metric" H 14488 5250 50  0001 C CNN
F 3 "~" H 14450 5400 50  0001 C CNN
	1    14450 5400
	1    0    0    -1  
$EndComp
$Comp
L Device:C C27
U 1 1 5D3203CE
P 14650 5400
F 0 "C27" V 14695 5210 50  0000 L CNN
F 1 "100n" V 14695 5440 50  0000 L CNN
F 2 "Capacitor_SMD:C_0402_1005Metric" H 14688 5250 50  0001 C CNN
F 3 "~" H 14650 5400 50  0001 C CNN
	1    14650 5400
	1    0    0    -1  
$EndComp
$Comp
L power:GND #PWR0168
U 1 1 5D33D3DA
P 13850 5550
F 0 "#PWR0168" H 13850 5300 50  0001 C CNN
F 1 "GND" H 13855 5377 50  0000 C CNN
F 2 "" H 13850 5550 50  0001 C CNN
F 3 "" H 13850 5550 50  0001 C CNN
	1    13850 5550
	1    0    0    -1  
$EndComp
$Comp
L power:GND #PWR0169
U 1 1 5D33D66E
P 14050 5550
F 0 "#PWR0169" H 14050 5300 50  0001 C CNN
F 1 "GND" H 14055 5377 50  0000 C CNN
F 2 "" H 14050 5550 50  0001 C CNN
F 3 "" H 14050 5550 50  0001 C CNN
	1    14050 5550
	1    0    0    -1  
$EndComp
$Comp
L power:GND #PWR0170
U 1 1 5D33D7B5
P 14250 5550
F 0 "#PWR0170" H 14250 5300 50  0001 C CNN
F 1 "GND" H 14255 5377 50  0000 C CNN
F 2 "" H 14250 5550 50  0001 C CNN
F 3 "" H 14250 5550 50  0001 C CNN
	1    14250 5550
	1    0    0    -1  
$EndComp
$Comp
L power:GND #PWR0171
U 1 1 5D33D9F4
P 14450 5550
F 0 "#PWR0171" H 14450 5300 50  0001 C CNN
F 1 "GND" H 14455 5377 50  0000 C CNN
F 2 "" H 14450 5550 50  0001 C CNN
F 3 "" H 14450 5550 50  0001 C CNN
	1    14450 5550
	1    0    0    -1  
$EndComp
$Comp
L power:GND #PWR0172
U 1 1 5D33DBF0
P 14650 5550
F 0 "#PWR0172" H 14650 5300 50  0001 C CNN
F 1 "GND" H 14655 5377 50  0000 C CNN
F 2 "" H 14650 5550 50  0001 C CNN
F 3 "" H 14650 5550 50  0001 C CNN
	1    14650 5550
	1    0    0    -1  
$EndComp
$Comp
L power:+1V8 #PWR0173
U 1 1 5D33F1F6
P 13850 5250
F 0 "#PWR0173" H 13850 5100 50  0001 C CNN
F 1 "+1V8" H 13865 5423 50  0000 C CNN
F 2 "" H 13850 5250 50  0001 C CNN
F 3 "" H 13850 5250 50  0001 C CNN
	1    13850 5250
	1    0    0    -1  
$EndComp
$Comp
L power:+1V8 #PWR0174
U 1 1 5D33F49F
P 14050 5250
F 0 "#PWR0174" H 14050 5100 50  0001 C CNN
F 1 "+1V8" H 14065 5423 50  0000 C CNN
F 2 "" H 14050 5250 50  0001 C CNN
F 3 "" H 14050 5250 50  0001 C CNN
	1    14050 5250
	1    0    0    -1  
$EndComp
$Comp
L power:+1V8 #PWR0175
U 1 1 5D33F66A
P 14250 5250
F 0 "#PWR0175" H 14250 5100 50  0001 C CNN
F 1 "+1V8" H 14265 5423 50  0000 C CNN
F 2 "" H 14250 5250 50  0001 C CNN
F 3 "" H 14250 5250 50  0001 C CNN
	1    14250 5250
	1    0    0    -1  
$EndComp
$Comp
L power:+1V8 #PWR0176
U 1 1 5D33F99C
P 14450 5250
F 0 "#PWR0176" H 14450 5100 50  0001 C CNN
F 1 "+1V8" H 14465 5423 50  0000 C CNN
F 2 "" H 14450 5250 50  0001 C CNN
F 3 "" H 14450 5250 50  0001 C CNN
	1    14450 5250
	1    0    0    -1  
$EndComp
$Comp
L power:+1V8 #PWR0177
U 1 1 5D33FCDE
P 14650 5250
F 0 "#PWR0177" H 14650 5100 50  0001 C CNN
F 1 "+1V8" H 14665 5423 50  0000 C CNN
F 2 "" H 14650 5250 50  0001 C CNN
F 3 "" H 14650 5250 50  0001 C CNN
	1    14650 5250
	1    0    0    -1  
$EndComp
$Comp
L Device:C C13
U 1 1 5D340072
P 13800 6250
F 0 "C13" V 13835 6055 50  0000 L CNN
F 1 "47µ" V 13845 6295 50  0000 L CNN
F 2 "Capacitor_SMD:C_0805_2012Metric" H 13838 6100 50  0001 C CNN
F 3 "~" H 13800 6250 50  0001 C CNN
	1    13800 6250
	1    0    0    -1  
$EndComp
$Comp
L Device:C C17
U 1 1 5D34105B
P 14000 6250
F 0 "C17" V 14040 6055 50  0000 L CNN
F 1 "4.7µ" V 14050 6290 50  0000 L CNN
F 2 "Capacitor_SMD:C_0805_2012Metric" H 14038 6100 50  0001 C CNN
F 3 "~" H 14000 6250 50  0001 C CNN
	1    14000 6250
	1    0    0    -1  
$EndComp
$Comp
L Device:C C21
U 1 1 5D341787
P 14200 6250
F 0 "C21" V 14250 6065 50  0000 L CNN
F 1 "100n" V 14245 6285 50  0000 L CNN
F 2 "Capacitor_SMD:C_0402_1005Metric" H 14238 6100 50  0001 C CNN
F 3 "~" H 14200 6250 50  0001 C CNN
	1    14200 6250
	1    0    0    -1  
$EndComp
$Comp
L Device:C C25
U 1 1 5D341B08
P 14400 6250
F 0 "C25" V 14445 6065 50  0000 L CNN
F 1 "100n" V 14440 6285 50  0000 L CNN
F 2 "Capacitor_SMD:C_0402_1005Metric" H 14438 6100 50  0001 C CNN
F 3 "~" H 14400 6250 50  0001 C CNN
	1    14400 6250
	1    0    0    -1  
$EndComp
$Comp
L Device:C C28
U 1 1 5D341DA5
P 14600 6250
F 0 "C28" V 14645 6065 50  0000 L CNN
F 1 "100n" V 14645 6290 50  0000 L CNN
F 2 "Capacitor_SMD:C_0402_1005Metric" H 14638 6100 50  0001 C CNN
F 3 "~" H 14600 6250 50  0001 C CNN
	1    14600 6250
	1    0    0    -1  
$EndComp
$Comp
L Device:C C30
U 1 1 5D34212D
P 14800 6250
F 0 "C30" V 14840 6060 50  0000 L CNN
F 1 "100n" V 14840 6285 50  0000 L CNN
F 2 "Capacitor_SMD:C_0402_1005Metric" H 14838 6100 50  0001 C CNN
F 3 "~" H 14800 6250 50  0001 C CNN
	1    14800 6250
	1    0    0    -1  
$EndComp
$Comp
L Device:C C32
U 1 1 5D3425B4
P 15000 6250
F 0 "C32" V 15045 6060 50  0000 L CNN
F 1 "100n" V 15040 6285 50  0000 L CNN
F 2 "Capacitor_SMD:C_0402_1005Metric" H 15038 6100 50  0001 C CNN
F 3 "~" H 15000 6250 50  0001 C CNN
	1    15000 6250
	1    0    0    -1  
$EndComp
$Comp
L power:GND #PWR0178
U 1 1 5D343B72
P 13800 6400
F 0 "#PWR0178" H 13800 6150 50  0001 C CNN
F 1 "GND" H 13805 6227 50  0000 C CNN
F 2 "" H 13800 6400 50  0001 C CNN
F 3 "" H 13800 6400 50  0001 C CNN
	1    13800 6400
	1    0    0    -1  
$EndComp
$Comp
L power:GND #PWR0179
U 1 1 5D343FD6
P 14000 6400
F 0 "#PWR0179" H 14000 6150 50  0001 C CNN
F 1 "GND" H 14005 6227 50  0000 C CNN
F 2 "" H 14000 6400 50  0001 C CNN
F 3 "" H 14000 6400 50  0001 C CNN
	1    14000 6400
	1    0    0    -1  
$EndComp
$Comp
L power:GND #PWR0180
U 1 1 5D34419C
P 14200 6400
F 0 "#PWR0180" H 14200 6150 50  0001 C CNN
F 1 "GND" H 14205 6227 50  0000 C CNN
F 2 "" H 14200 6400 50  0001 C CNN
F 3 "" H 14200 6400 50  0001 C CNN
	1    14200 6400
	1    0    0    -1  
$EndComp
$Comp
L power:GND #PWR0181
U 1 1 5D34437A
P 14400 6400
F 0 "#PWR0181" H 14400 6150 50  0001 C CNN
F 1 "GND" H 14405 6227 50  0000 C CNN
F 2 "" H 14400 6400 50  0001 C CNN
F 3 "" H 14400 6400 50  0001 C CNN
	1    14400 6400
	1    0    0    -1  
$EndComp
$Comp
L power:GND #PWR0182
U 1 1 5D34457A
P 14600 6400
F 0 "#PWR0182" H 14600 6150 50  0001 C CNN
F 1 "GND" H 14605 6227 50  0000 C CNN
F 2 "" H 14600 6400 50  0001 C CNN
F 3 "" H 14600 6400 50  0001 C CNN
	1    14600 6400
	1    0    0    -1  
$EndComp
$Comp
L power:GND #PWR0183
U 1 1 5D34473B
P 14800 6400
F 0 "#PWR0183" H 14800 6150 50  0001 C CNN
F 1 "GND" H 14805 6227 50  0000 C CNN
F 2 "" H 14800 6400 50  0001 C CNN
F 3 "" H 14800 6400 50  0001 C CNN
	1    14800 6400
	1    0    0    -1  
$EndComp
$Comp
L power:GND #PWR0184
U 1 1 5D3448C4
P 15000 6400
F 0 "#PWR0184" H 15000 6150 50  0001 C CNN
F 1 "GND" H 15005 6227 50  0000 C CNN
F 2 "" H 15000 6400 50  0001 C CNN
F 3 "" H 15000 6400 50  0001 C CNN
	1    15000 6400
	1    0    0    -1  
$EndComp
$Comp
L power:GND #PWR0185
U 1 1 5D344A82
P 15200 6400
F 0 "#PWR0185" H 15200 6150 50  0001 C CNN
F 1 "GND" H 15205 6227 50  0000 C CNN
F 2 "" H 15200 6400 50  0001 C CNN
F 3 "" H 15200 6400 50  0001 C CNN
	1    15200 6400
	1    0    0    -1  
$EndComp
$Comp
L power:GND #PWR0186
U 1 1 5D344D08
P 15400 6400
F 0 "#PWR0186" H 15400 6150 50  0001 C CNN
F 1 "GND" H 15405 6227 50  0000 C CNN
F 2 "" H 15400 6400 50  0001 C CNN
F 3 "" H 15400 6400 50  0001 C CNN
	1    15400 6400
	1    0    0    -1  
$EndComp
$Comp
L power:GND #PWR0187
U 1 1 5D344F62
P 15600 6400
F 0 "#PWR0187" H 15600 6150 50  0001 C CNN
F 1 "GND" H 15605 6227 50  0000 C CNN
F 2 "" H 15600 6400 50  0001 C CNN
F 3 "" H 15600 6400 50  0001 C CNN
	1    15600 6400
	1    0    0    -1  
$EndComp
$Comp
L power:+3V3 #PWR0194
U 1 1 5D347836
P 15600 6100
F 0 "#PWR0194" H 15600 5950 50  0001 C CNN
F 1 "+3V3" H 15615 6273 50  0000 C CNN
F 2 "" H 15600 6100 50  0001 C CNN
F 3 "" H 15600 6100 50  0001 C CNN
	1    15600 6100
	1    0    0    -1  
$EndComp
$Comp
L power:+3V3 #PWR0195
U 1 1 5D347B51
P 15400 6100
F 0 "#PWR0195" H 15400 5950 50  0001 C CNN
F 1 "+3V3" H 15415 6273 50  0000 C CNN
F 2 "" H 15400 6100 50  0001 C CNN
F 3 "" H 15400 6100 50  0001 C CNN
	1    15400 6100
	1    0    0    -1  
$EndComp
$Comp
L power:+3V3 #PWR0196
U 1 1 5D347E1D
P 15200 6100
F 0 "#PWR0196" H 15200 5950 50  0001 C CNN
F 1 "+3V3" H 15215 6273 50  0000 C CNN
F 2 "" H 15200 6100 50  0001 C CNN
F 3 "" H 15200 6100 50  0001 C CNN
	1    15200 6100
	1    0    0    -1  
$EndComp
$Comp
L power:+3V3 #PWR0197
U 1 1 5D348074
P 15000 6100
F 0 "#PWR0197" H 15000 5950 50  0001 C CNN
F 1 "+3V3" H 15015 6273 50  0000 C CNN
F 2 "" H 15000 6100 50  0001 C CNN
F 3 "" H 15000 6100 50  0001 C CNN
	1    15000 6100
	1    0    0    -1  
$EndComp
$Comp
L power:+3V3 #PWR0198
U 1 1 5D34831A
P 14800 6100
F 0 "#PWR0198" H 14800 5950 50  0001 C CNN
F 1 "+3V3" H 14815 6273 50  0000 C CNN
F 2 "" H 14800 6100 50  0001 C CNN
F 3 "" H 14800 6100 50  0001 C CNN
	1    14800 6100
	1    0    0    -1  
$EndComp
$Comp
L power:+3V3 #PWR0199
U 1 1 5D348580
P 14600 6100
F 0 "#PWR0199" H 14600 5950 50  0001 C CNN
F 1 "+3V3" H 14615 6273 50  0000 C CNN
F 2 "" H 14600 6100 50  0001 C CNN
F 3 "" H 14600 6100 50  0001 C CNN
	1    14600 6100
	1    0    0    -1  
$EndComp
$Comp
L power:+3V3 #PWR0200
U 1 1 5D348805
P 14400 6100
F 0 "#PWR0200" H 14400 5950 50  0001 C CNN
F 1 "+3V3" H 14415 6273 50  0000 C CNN
F 2 "" H 14400 6100 50  0001 C CNN
F 3 "" H 14400 6100 50  0001 C CNN
	1    14400 6100
	1    0    0    -1  
$EndComp
$Comp
L power:+3V3 #PWR0201
U 1 1 5D348AC9
P 14200 6100
F 0 "#PWR0201" H 14200 5950 50  0001 C CNN
F 1 "+3V3" H 14215 6273 50  0000 C CNN
F 2 "" H 14200 6100 50  0001 C CNN
F 3 "" H 14200 6100 50  0001 C CNN
	1    14200 6100
	1    0    0    -1  
$EndComp
$Comp
L power:+3V3 #PWR0202
U 1 1 5D348DAE
P 14000 6100
F 0 "#PWR0202" H 14000 5950 50  0001 C CNN
F 1 "+3V3" H 14015 6273 50  0000 C CNN
F 2 "" H 14000 6100 50  0001 C CNN
F 3 "" H 14000 6100 50  0001 C CNN
	1    14000 6100
	1    0    0    -1  
$EndComp
$Comp
L power:+3V3 #PWR0203
U 1 1 5D348FBD
P 13800 6100
F 0 "#PWR0203" H 13800 5950 50  0001 C CNN
F 1 "+3V3" H 13815 6273 50  0000 C CNN
F 2 "" H 13800 6100 50  0001 C CNN
F 3 "" H 13800 6100 50  0001 C CNN
	1    13800 6100
	1    0    0    -1  
$EndComp
$Comp
L power:+1V0 #PWR0156
U 1 1 5D2D5544
P 14000 4400
F 0 "#PWR0156" H 14000 4250 50  0001 C CNN
F 1 "+1V0" V 13985 4631 50  0000 C CNN
F 2 "" H 14000 4400 50  0001 C CNN
F 3 "" H 14000 4400 50  0001 C CNN
	1    14000 4400
	1    0    0    -1  
$EndComp
$Comp
L power:+1V0 #PWR0155
U 1 1 5D2D5322
P 13800 4400
F 0 "#PWR0155" H 13800 4250 50  0001 C CNN
F 1 "+1V0" V 13779 4634 50  0000 C CNN
F 2 "" H 13800 4400 50  0001 C CNN
F 3 "" H 13800 4400 50  0001 C CNN
	1    13800 4400
	1    0    0    -1  
$EndComp
$Comp
L power:GND #PWR0147
U 1 1 5D2D27DF
P 14000 4700
F 0 "#PWR0147" H 14000 4450 50  0001 C CNN
F 1 "GND" H 14005 4527 50  0000 C CNN
F 2 "" H 14000 4700 50  0001 C CNN
F 3 "" H 14000 4700 50  0001 C CNN
	1    14000 4700
	1    0    0    -1  
$EndComp
$Comp
L power:GND #PWR0146
U 1 1 5D2D25B7
P 13800 4700
F 0 "#PWR0146" H 13800 4450 50  0001 C CNN
F 1 "GND" H 13805 4527 50  0000 C CNN
F 2 "" H 13800 4700 50  0001 C CNN
F 3 "" H 13800 4700 50  0001 C CNN
	1    13800 4700
	1    0    0    -1  
$EndComp
$Comp
L Device:C C29
U 1 1 5D2CFDE2
P 14000 4550
F 0 "C29" V 14045 4360 50  0000 L CNN
F 1 "100n" V 14050 4595 50  0000 L CNN
F 2 "Capacitor_SMD:C_0402_1005Metric" H 14038 4400 50  0001 C CNN
F 3 "~" H 14000 4550 50  0001 C CNN
	1    14000 4550
	1    0    0    -1  
$EndComp
$Comp
L Device:C C26
U 1 1 5D2CF9FA
P 13800 4550
F 0 "C26" V 13845 4360 50  0000 L CNN
F 1 "100n" V 13850 4590 50  0000 L CNN
F 2 "Capacitor_SMD:C_0402_1005Metric" H 13838 4400 50  0001 C CNN
F 3 "~" H 13800 4550 50  0001 C CNN
	1    13800 4550
	1    0    0    -1  
$EndComp
$Comp
L power:+1V0 #PWR0158
U 1 1 5D2D5BC7
P 14400 4400
F 0 "#PWR0158" H 14400 4250 50  0001 C CNN
F 1 "+1V0" V 14385 4620 50  0000 C CNN
F 2 "" H 14400 4400 50  0001 C CNN
F 3 "" H 14400 4400 50  0001 C CNN
	1    14400 4400
	1    0    0    -1  
$EndComp
$Comp
L power:+1V0 #PWR0157
U 1 1 5D2D58B4
P 14200 4400
F 0 "#PWR0157" H 14200 4250 50  0001 C CNN
F 1 "+1V0" V 14185 4620 50  0000 C CNN
F 2 "" H 14200 4400 50  0001 C CNN
F 3 "" H 14200 4400 50  0001 C CNN
	1    14200 4400
	1    0    0    -1  
$EndComp
$Comp
L power:GND #PWR0149
U 1 1 5D2D2D7E
P 14400 4700
F 0 "#PWR0149" H 14400 4450 50  0001 C CNN
F 1 "GND" H 14405 4527 50  0000 C CNN
F 2 "" H 14400 4700 50  0001 C CNN
F 3 "" H 14400 4700 50  0001 C CNN
	1    14400 4700
	1    0    0    -1  
$EndComp
$Comp
L power:GND #PWR0148
U 1 1 5D2D29DB
P 14200 4700
F 0 "#PWR0148" H 14200 4450 50  0001 C CNN
F 1 "GND" H 14205 4527 50  0000 C CNN
F 2 "" H 14200 4700 50  0001 C CNN
F 3 "" H 14200 4700 50  0001 C CNN
	1    14200 4700
	1    0    0    -1  
$EndComp
$Comp
L Device:C C33
U 1 1 5D2D04E8
P 14400 4550
F 0 "C33" V 14445 4350 50  0000 L CNN
F 1 "100n" V 14445 4590 50  0000 L CNN
F 2 "Capacitor_SMD:C_0402_1005Metric" H 14438 4400 50  0001 C CNN
F 3 "~" H 14400 4550 50  0001 C CNN
	1    14400 4550
	1    0    0    -1  
$EndComp
$Comp
L Device:C C31
U 1 1 5D2D0152
P 14200 4550
F 0 "C31" V 14240 4360 50  0000 L CNN
F 1 "100n" V 14245 4590 50  0000 L CNN
F 2 "Capacitor_SMD:C_0402_1005Metric" H 14238 4400 50  0001 C CNN
F 3 "~" H 14200 4550 50  0001 C CNN
	1    14200 4550
	1    0    0    -1  
$EndComp
$Comp
L Device:C C23
U 1 1 5D2F9DDC
P 15400 5400
F 0 "C23" V 15445 5225 50  0000 L CNN
F 1 "100n" V 15445 5440 50  0000 L CNN
F 2 "Capacitor_SMD:C_0402_1005Metric" H 15438 5250 50  0001 C CNN
F 3 "~" H 15400 5400 50  0001 C CNN
	1    15400 5400
	1    0    0    -1  
$EndComp
$Comp
L Device:C C19
U 1 1 5D2F9AF5
P 15200 5400
F 0 "C19" V 15250 5215 50  0000 L CNN
F 1 "4.7µ" V 15245 5445 50  0000 L CNN
F 2 "Capacitor_SMD:C_0805_2012Metric" H 15238 5250 50  0001 C CNN
F 3 "~" H 15200 5400 50  0001 C CNN
	1    15200 5400
	1    0    0    -1  
$EndComp
$Comp
L power:+1V0 #PWR0159
U 1 1 5D2D5EB5
P 14600 4400
F 0 "#PWR0159" H 14600 4250 50  0001 C CNN
F 1 "+1V0" V 14590 4620 50  0000 C CNN
F 2 "" H 14600 4400 50  0001 C CNN
F 3 "" H 14600 4400 50  0001 C CNN
	1    14600 4400
	1    0    0    -1  
$EndComp
$Comp
L power:GND #PWR0150
U 1 1 5D2D3127
P 14600 4700
F 0 "#PWR0150" H 14600 4450 50  0001 C CNN
F 1 "GND" H 14605 4527 50  0000 C CNN
F 2 "" H 14600 4700 50  0001 C CNN
F 3 "" H 14600 4700 50  0001 C CNN
	1    14600 4700
	1    0    0    -1  
$EndComp
$Comp
L Device:C C35
U 1 1 5D2D07FC
P 14600 4550
F 0 "C35" V 14645 4355 50  0000 L CNN
F 1 "100n" V 14645 4585 50  0000 L CNN
F 2 "Capacitor_SMD:C_0402_1005Metric" H 14638 4400 50  0001 C CNN
F 3 "~" H 14600 4550 50  0001 C CNN
	1    14600 4550
	1    0    0    -1  
$EndComp
$Comp
L power:+1V0 #PWR0153
U 1 1 5D2D4BFC
P 13400 4400
F 0 "#PWR0153" H 13400 4250 50  0001 C CNN
F 1 "+1V0" V 13386 4621 50  0000 C CNN
F 2 "" H 13400 4400 50  0001 C CNN
F 3 "" H 13400 4400 50  0001 C CNN
	1    13400 4400
	1    0    0    -1  
$EndComp
$Comp
L power:+1V0 #PWR0152
U 1 1 5D2D4896
P 13200 4400
F 0 "#PWR0152" H 13200 4250 50  0001 C CNN
F 1 "+1V0" V 13182 4617 50  0000 C CNN
F 2 "" H 13200 4400 50  0001 C CNN
F 3 "" H 13200 4400 50  0001 C CNN
	1    13200 4400
	1    0    0    -1  
$EndComp
$Comp
L power:+1V0 #PWR0151
U 1 1 5D2D45B8
P 13000 4400
F 0 "#PWR0151" H 13000 4250 50  0001 C CNN
F 1 "+1V0" V 12991 4618 50  0000 C CNN
F 2 "" H 13000 4400 50  0001 C CNN
F 3 "" H 13000 4400 50  0001 C CNN
	1    13000 4400
	1    0    0    -1  
$EndComp
$Comp
L power:GND #PWR0144
U 1 1 5D2D2197
P 13400 4700
F 0 "#PWR0144" H 13400 4450 50  0001 C CNN
F 1 "GND" H 13405 4527 50  0000 C CNN
F 2 "" H 13400 4700 50  0001 C CNN
F 3 "" H 13400 4700 50  0001 C CNN
	1    13400 4700
	1    0    0    -1  
$EndComp
$Comp
L power:GND #PWR0143
U 1 1 5D2D200C
P 13200 4700
F 0 "#PWR0143" H 13200 4450 50  0001 C CNN
F 1 "GND" H 13205 4527 50  0000 C CNN
F 2 "" H 13200 4700 50  0001 C CNN
F 3 "" H 13200 4700 50  0001 C CNN
	1    13200 4700
	1    0    0    -1  
$EndComp
$Comp
L power:GND #PWR0142
U 1 1 5D2D1ECD
P 13000 4700
F 0 "#PWR0142" H 13000 4450 50  0001 C CNN
F 1 "GND" H 13005 4527 50  0000 C CNN
F 2 "" H 13000 4700 50  0001 C CNN
F 3 "" H 13000 4700 50  0001 C CNN
	1    13000 4700
	1    0    0    -1  
$EndComp
$Comp
L Device:C C18
U 1 1 5D2CF42A
P 13400 4550
F 0 "C18" V 13445 4360 50  0000 L CNN
F 1 "4.7µ" V 13445 4585 50  0000 L CNN
F 2 "Capacitor_SMD:C_0805_2012Metric" H 13438 4400 50  0001 C CNN
F 3 "~" H 13400 4550 50  0001 C CNN
	1    13400 4550
	1    0    0    -1  
$EndComp
$Comp
L Device:C C14
U 1 1 5D2CEFC6
P 13200 4550
F 0 "C14" V 13240 4360 50  0000 L CNN
F 1 "4.7µ" V 13245 4585 50  0000 L CNN
F 2 "Capacitor_SMD:C_0805_2012Metric" H 13238 4400 50  0001 C CNN
F 3 "~" H 13200 4550 50  0001 C CNN
	1    13200 4550
	1    0    0    -1  
$EndComp
$Comp
L Device:C C34
U 1 1 5D3428DB
P 15200 6250
F 0 "C34" V 15240 6060 50  0000 L CNN
F 1 "100n" V 15240 6290 50  0000 L CNN
F 2 "Capacitor_SMD:C_0402_1005Metric" H 15238 6100 50  0001 C CNN
F 3 "~" H 15200 6250 50  0001 C CNN
	1    15200 6250
	1    0    0    -1  
$EndComp
$Comp
L Device:C C36
U 1 1 5D342BED
P 15400 6250
F 0 "C36" V 15445 6060 50  0000 L CNN
F 1 "100n" V 15445 6285 50  0000 L CNN
F 2 "Capacitor_SMD:C_0402_1005Metric" H 15438 6100 50  0001 C CNN
F 3 "~" H 15400 6250 50  0001 C CNN
	1    15400 6250
	1    0    0    -1  
$EndComp
$Comp
L Device:C C37
U 1 1 5D342F75
P 15600 6250
F 0 "C37" V 15635 6060 50  0000 L CNN
F 1 "100n" V 15645 6280 50  0000 L CNN
F 2 "Capacitor_SMD:C_0402_1005Metric" H 15638 6100 50  0001 C CNN
F 3 "~" H 15600 6250 50  0001 C CNN
	1    15600 6250
	1    0    0    -1  
$EndComp
$Comp
L Device:C C10
U 1 1 5D2D0AD0
P 13000 4550
F 0 "C10" V 13045 4365 50  0000 L CNN
F 1 "47µ" V 13050 4590 50  0000 L CNN
F 2 "Capacitor_SMD:C_0805_2012Metric" H 13038 4400 50  0001 C CNN
F 3 "~" H 13000 4550 50  0001 C CNN
	1    13000 4550
	1    0    0    -1  
$EndComp
$Comp
L power:+1V0 #PWR0160
U 1 1 5C9E8E8F
P 14800 4400
F 0 "#PWR0160" H 14800 4250 50  0001 C CNN
F 1 "+1V0" V 14785 4620 50  0000 C CNN
F 2 "" H 14800 4400 50  0001 C CNN
F 3 "" H 14800 4400 50  0001 C CNN
	1    14800 4400
	1    0    0    -1  
$EndComp
$Comp
L power:GND #PWR0164
U 1 1 5C9E8E95
P 14800 4700
F 0 "#PWR0164" H 14800 4450 50  0001 C CNN
F 1 "GND" H 14805 4527 50  0000 C CNN
F 2 "" H 14800 4700 50  0001 C CNN
F 3 "" H 14800 4700 50  0001 C CNN
	1    14800 4700
	1    0    0    -1  
$EndComp
$Comp
L Device:C C41
U 1 1 5C9E8E9B
P 14800 4550
F 0 "C41" V 14845 4350 50  0000 L CNN
F 1 "100n" V 14845 4590 50  0000 L CNN
F 2 "Capacitor_SMD:C_0402_1005Metric" H 14838 4400 50  0001 C CNN
F 3 "~" H 14800 4550 50  0001 C CNN
	1    14800 4550
	1    0    0    -1  
$EndComp
$Comp
L power:+1V0 #PWR0204
U 1 1 5C9E8EA1
P 15000 4400
F 0 "#PWR0204" H 15000 4250 50  0001 C CNN
F 1 "+1V0" V 14990 4620 50  0000 C CNN
F 2 "" H 15000 4400 50  0001 C CNN
F 3 "" H 15000 4400 50  0001 C CNN
	1    15000 4400
	1    0    0    -1  
$EndComp
$Comp
L power:GND #PWR0205
U 1 1 5C9E8EA7
P 15000 4700
F 0 "#PWR0205" H 15000 4450 50  0001 C CNN
F 1 "GND" H 15005 4527 50  0000 C CNN
F 2 "" H 15000 4700 50  0001 C CNN
F 3 "" H 15000 4700 50  0001 C CNN
	1    15000 4700
	1    0    0    -1  
$EndComp
$Comp
L Device:C C42
U 1 1 5C9E8EAD
P 15000 4550
F 0 "C42" V 15045 4355 50  0000 L CNN
F 1 "100n" V 15045 4585 50  0000 L CNN
F 2 "Capacitor_SMD:C_0402_1005Metric" H 15038 4400 50  0001 C CNN
F 3 "~" H 15000 4550 50  0001 C CNN
	1    15000 4550
	1    0    0    -1  
$EndComp
$Comp
L power:GND #PWR0206
U 1 1 5CA223D0
P 15600 5550
F 0 "#PWR0206" H 15600 5300 50  0001 C CNN
F 1 "GND" H 15605 5377 50  0000 C CNN
F 2 "" H 15600 5550 50  0001 C CNN
F 3 "" H 15600 5550 50  0001 C CNN
	1    15600 5550
	1    0    0    -1  
$EndComp
$Comp
L power:+1V0 #PWR0207
U 1 1 5CA223DA
P 15600 5250
F 0 "#PWR0207" H 15600 5100 50  0001 C CNN
F 1 "+1V0" H 15615 5423 50  0000 C CNN
F 2 "" H 15600 5250 50  0001 C CNN
F 3 "" H 15600 5250 50  0001 C CNN
	1    15600 5250
	1    0    0    -1  
$EndComp
$Comp
L Device:C C11
U 1 1 5CA223E4
P 15600 5400
F 0 "C11" V 15645 5225 50  0000 L CNN
F 1 "100n" V 15645 5440 50  0000 L CNN
F 2 "Capacitor_SMD:C_0402_1005Metric" H 15638 5250 50  0001 C CNN
F 3 "~" H 15600 5400 50  0001 C CNN
	1    15600 5400
	1    0    0    -1  
$EndComp
$Comp
L Device:C C22
U 1 1 5D2CF6F8
P 13600 4550
F 0 "C22" V 13645 4365 50  0000 L CNN
F 1 "1µ" V 13650 4595 50  0000 L CNN
F 2 "Capacitor_SMD:C_0805_2012Metric" H 13638 4400 50  0001 C CNN
F 3 "~" H 13600 4550 50  0001 C CNN
	1    13600 4550
	1    0    0    -1  
$EndComp
$Comp
L power:GND #PWR0145
U 1 1 5D2D23CE
P 13600 4700
F 0 "#PWR0145" H 13600 4450 50  0001 C CNN
F 1 "GND" H 13605 4527 50  0000 C CNN
F 2 "" H 13600 4700 50  0001 C CNN
F 3 "" H 13600 4700 50  0001 C CNN
	1    13600 4700
	1    0    0    -1  
$EndComp
$Comp
L power:+1V0 #PWR0154
U 1 1 5D2D4F87
P 13600 4400
F 0 "#PWR0154" H 13600 4250 50  0001 C CNN
F 1 "+1V0" V 13582 4627 50  0000 C CNN
F 2 "" H 13600 4400 50  0001 C CNN
F 3 "" H 13600 4400 50  0001 C CNN
	1    13600 4400
	1    0    0    -1  
$EndComp
$Comp
L power:+1V0 #PWR0208
U 1 1 5CB55587
P 15200 4400
F 0 "#PWR0208" H 15200 4250 50  0001 C CNN
F 1 "+1V0" V 15190 4620 50  0000 C CNN
F 2 "" H 15200 4400 50  0001 C CNN
F 3 "" H 15200 4400 50  0001 C CNN
	1    15200 4400
	1    0    0    -1  
$EndComp
$Comp
L power:GND #PWR0209
U 1 1 5CB55591
P 15200 4700
F 0 "#PWR0209" H 15200 4450 50  0001 C CNN
F 1 "GND" H 15205 4527 50  0000 C CNN
F 2 "" H 15200 4700 50  0001 C CNN
F 3 "" H 15200 4700 50  0001 C CNN
	1    15200 4700
	1    0    0    -1  
$EndComp
$Comp
L Device:C C43
U 1 1 5CB5559B
P 15200 4550
F 0 "C43" V 15245 4355 50  0000 L CNN
F 1 "100n" V 15245 4585 50  0000 L CNN
F 2 "Capacitor_SMD:C_0402_1005Metric" H 15238 4400 50  0001 C CNN
F 3 "~" H 15200 4550 50  0001 C CNN
	1    15200 4550
	1    0    0    -1  
$EndComp
$Comp
L power:+1V0 #PWR0210
U 1 1 5CB79494
P 15400 4400
F 0 "#PWR0210" H 15400 4250 50  0001 C CNN
F 1 "+1V0" V 15390 4620 50  0000 C CNN
F 2 "" H 15400 4400 50  0001 C CNN
F 3 "" H 15400 4400 50  0001 C CNN
	1    15400 4400
	1    0    0    -1  
$EndComp
$Comp
L power:GND #PWR0211
U 1 1 5CB7949E
P 15400 4700
F 0 "#PWR0211" H 15400 4450 50  0001 C CNN
F 1 "GND" H 15405 4527 50  0000 C CNN
F 2 "" H 15400 4700 50  0001 C CNN
F 3 "" H 15400 4700 50  0001 C CNN
	1    15400 4700
	1    0    0    -1  
$EndComp
$Comp
L Device:C C44
U 1 1 5CB794A8
P 15400 4550
F 0 "C44" V 15445 4355 50  0000 L CNN
F 1 "100n" V 15445 4585 50  0000 L CNN
F 2 "Capacitor_SMD:C_0402_1005Metric" H 15438 4400 50  0001 C CNN
F 3 "~" H 15400 4550 50  0001 C CNN
	1    15400 4550
	1    0    0    -1  
$EndComp
$Comp
L power:+1V0 #PWR0188
U 1 1 5CCD6235
P 15600 4400
F 0 "#PWR0188" H 15600 4250 50  0001 C CNN
F 1 "+1V0" V 15590 4620 50  0000 C CNN
F 2 "" H 15600 4400 50  0001 C CNN
F 3 "" H 15600 4400 50  0001 C CNN
	1    15600 4400
	1    0    0    -1  
$EndComp
$Comp
L power:GND #PWR0189
U 1 1 5CCD623F
P 15600 4700
F 0 "#PWR0189" H 15600 4450 50  0001 C CNN
F 1 "GND" H 15605 4527 50  0000 C CNN
F 2 "" H 15600 4700 50  0001 C CNN
F 3 "" H 15600 4700 50  0001 C CNN
	1    15600 4700
	1    0    0    -1  
$EndComp
$Comp
L Device:C C38
U 1 1 5CCD6249
P 15600 4550
F 0 "C38" V 15645 4355 50  0000 L CNN
F 1 "100n" V 15645 4585 50  0000 L CNN
F 2 "Capacitor_SMD:C_0402_1005Metric" H 15638 4400 50  0001 C CNN
F 3 "~" H 15600 4550 50  0001 C CNN
	1    15600 4550
	1    0    0    -1  
$EndComp
$Comp
L Oscillator:XO32 X1
U 1 1 5CEFFEBA
P 5100 5950
F 0 "X1" H 5200 6200 50  0000 L CNN
F 1 "XO32-12MHz" H 5200 5700 50  0000 L CNN
F 2 "Oscillator:Oscillator_SMD_EuroQuartz_XO32-4Pin_3.2x2.5mm" H 5800 5600 50  0001 C CNN
F 3 "http://cdn-reichelt.de/documents/datenblatt/B400/XO32.pdf" H 5000 5950 50  0001 C CNN
	1    5100 5950
	1    0    0    -1  
$EndComp
$Comp
L power:GND #PWR0190
U 1 1 5CF01DDC
P 5100 6350
F 0 "#PWR0190" H 5100 6100 50  0001 C CNN
F 1 "GND" H 5105 6177 50  0000 C CNN
F 2 "" H 5100 6350 50  0001 C CNN
F 3 "" H 5100 6350 50  0001 C CNN
	1    5100 6350
	1    0    0    -1  
$EndComp
$Comp
L power:+3V3 #PWR0191
U 1 1 5CF03689
P 5100 5550
F 0 "#PWR0191" H 5100 5400 50  0001 C CNN
F 1 "+3V3" H 5115 5723 50  0000 C CNN
F 2 "" H 5100 5550 50  0001 C CNN
F 3 "" H 5100 5550 50  0001 C CNN
	1    5100 5550
	1    0    0    -1  
$EndComp
$Comp
L power:+3V3 #PWR0192
U 1 1 5CF03AB7
P 4750 5900
F 0 "#PWR0192" H 4750 5750 50  0001 C CNN
F 1 "+3V3" H 4765 6073 50  0000 C CNN
F 2 "" H 4750 5900 50  0001 C CNN
F 3 "" H 4750 5900 50  0001 C CNN
	1    4750 5900
	1    0    0    -1  
$EndComp
Wire Wire Line
	4750 5900 4750 5950
Wire Wire Line
	4750 5950 4800 5950
$Comp
L Device:C C39
U 1 1 5CF21C3E
P 4600 6000
F 0 "C39" V 4348 6000 50  0000 C CNN
F 1 "100n" V 4439 6000 50  0000 C CNN
F 2 "Capacitor_SMD:C_0402_1005Metric" H 4638 5850 50  0001 C CNN
F 3 "~" H 4600 6000 50  0001 C CNN
	1    4600 6000
	1    0    0    -1  
$EndComp
Wire Wire Line
	5100 5550 5100 5600
Wire Wire Line
	5100 5600 4600 5600
Wire Wire Line
	4600 5600 4600 5850
Connection ~ 5100 5600
Wire Wire Line
	5100 5600 5100 5650
Wire Wire Line
	5100 6250 5100 6300
Wire Wire Line
	4600 6150 4600 6300
Wire Wire Line
	4600 6300 5100 6300
Connection ~ 5100 6300
Wire Wire Line
	5100 6300 5100 6350
Wire Wire Line
	10950 4900 10700 4900
Text Label 10850 4900 2    50   ~ 0
CLK_12M
Text Label 5750 5950 0    50   ~ 0
CLK_12M
$Comp
L Device:R R11
U 1 1 5C9675A0
P 5600 5950
F 0 "R11" V 5515 5875 50  0000 C CNN
F 1 "33R" V 5515 6045 50  0000 C CNN
F 2 "Resistor_SMD:R_0402_1005Metric" V 5530 5950 50  0001 C CNN
F 3 "~" H 5600 5950 50  0001 C CNN
	1    5600 5950
	0    1    1    0   
$EndComp
Wire Wire Line
	5400 5950 5450 5950
Wire Wire Line
	5750 5950 6000 5950
Wire Wire Line
	10950 1050 10650 1050
Text Label 10900 1050 2    50   ~ 0
TDO_M1
Wire Wire Line
	10950 1150 10650 1150
Text Label 10650 1150 0    50   ~ 0
nTRST
Wire Wire Line
	10950 1650 10650 1650
Text Label 10900 1750 2    50   ~ 0
I2C_SCL
Wire Wire Line
	10950 1750 10650 1750
Text Label 10900 1550 2    50   ~ 0
I2C_SDA
Wire Wire Line
	10950 1850 10650 1850
Text Label 10900 1850 2    50   ~ 0
TDI_M1
Wire Wire Line
	8350 4300 8650 4300
Wire Wire Line
	8650 4400 8350 4400
Wire Wire Line
	8650 4500 8350 4500
Wire Wire Line
	8650 4600 8350 4600
Wire Wire Line
	8650 4700 8350 4700
Wire Wire Line
	8650 4800 8350 4800
Wire Wire Line
	8650 4900 8350 4900
Wire Wire Line
	8650 5000 8350 5000
Text Label 8600 5000 2    50   ~ 0
IN3
Wire Wire Line
	10950 9150 11250 9150
Text Label 3200 2300 0    50   ~ 0
SPI1_MOSI
Wire Wire Line
	10950 2450 10650 2450
Text Label 10900 2450 2    50   ~ 0
SWD_CLK
Text Label 10900 3250 2    50   ~ 0
RESET
Wire Wire Line
	8650 5600 8350 5600
$Comp
L iccfpga-devboard-rescue:MPCIE-Socket-mpcie U5
U 1 1 5C988D75
P 2500 3050
F 0 "U5" H 2500 4593 60  0000 C CNN
F 1 "MPCIE-Socket" H 2500 4487 60  0000 C CNN
F 2 "mpcie:mpcie-half-card" H 2500 4381 60  0000 C CNN
F 3 "" H 2600 2050 60  0000 C CNN
F 4 "NA" H 2500 3050 50  0001 C CNN "Distributor"
	1    2500 3050
	1    0    0    -1  
$EndComp
$Comp
L power:GND #PWR0193
U 1 1 5CA04261
P 1800 2300
F 0 "#PWR0193" H 1800 2050 50  0001 C CNN
F 1 "GND" V 1805 2172 50  0000 R CNN
F 2 "" H 1800 2300 50  0001 C CNN
F 3 "" H 1800 2300 50  0001 C CNN
	1    1800 2300
	0    1    1    0   
$EndComp
$Comp
L power:GND #PWR0212
U 1 1 5CA04695
P 1800 2600
F 0 "#PWR0212" H 1800 2350 50  0001 C CNN
F 1 "GND" V 1805 2472 50  0000 R CNN
F 2 "" H 1800 2600 50  0001 C CNN
F 3 "" H 1800 2600 50  0001 C CNN
	1    1800 2600
	0    1    1    0   
$EndComp
$Comp
L power:GND #PWR0213
U 1 1 5CA049E4
P 1800 2700
F 0 "#PWR0213" H 1800 2450 50  0001 C CNN
F 1 "GND" V 1805 2572 50  0000 R CNN
F 2 "" H 1800 2700 50  0001 C CNN
F 3 "" H 1800 2700 50  0001 C CNN
	1    1800 2700
	0    1    1    0   
$EndComp
$Comp
L power:GND #PWR0214
U 1 1 5CA04C38
P 1800 3000
F 0 "#PWR0214" H 1800 2750 50  0001 C CNN
F 1 "GND" V 1805 2872 50  0000 R CNN
F 2 "" H 1800 3000 50  0001 C CNN
F 3 "" H 1800 3000 50  0001 C CNN
	1    1800 3000
	0    1    1    0   
$EndComp
$Comp
L power:GND #PWR0217
U 1 1 5CA05468
P 1800 3800
F 0 "#PWR0217" H 1800 3550 50  0001 C CNN
F 1 "GND" V 1805 3672 50  0000 R CNN
F 2 "" H 1800 3800 50  0001 C CNN
F 3 "" H 1800 3800 50  0001 C CNN
	1    1800 3800
	0    1    1    0   
$EndComp
$Comp
L power:GND #PWR0218
U 1 1 5CA0575F
P 1800 4100
F 0 "#PWR0218" H 1800 3850 50  0001 C CNN
F 1 "GND" V 1805 3972 50  0000 R CNN
F 2 "" H 1800 4100 50  0001 C CNN
F 3 "" H 1800 4100 50  0001 C CNN
	1    1800 4100
	0    1    1    0   
$EndComp
$Comp
L power:GND #PWR0219
U 1 1 5CA05B90
P 3200 4400
F 0 "#PWR0219" H 3200 4150 50  0001 C CNN
F 1 "GND" V 3205 4272 50  0000 R CNN
F 2 "" H 3200 4400 50  0001 C CNN
F 3 "" H 3200 4400 50  0001 C CNN
	1    3200 4400
	0    -1   -1   0   
$EndComp
$Comp
L power:GND #PWR0220
U 1 1 5CA061B6
P 3200 3600
F 0 "#PWR0220" H 3200 3350 50  0001 C CNN
F 1 "GND" V 3205 3472 50  0000 R CNN
F 2 "" H 3200 3600 50  0001 C CNN
F 3 "" H 3200 3600 50  0001 C CNN
	1    3200 3600
	0    -1   -1   0   
$EndComp
$Comp
L power:GND #PWR0221
U 1 1 5CA068BC
P 3200 3200
F 0 "#PWR0221" H 3200 2950 50  0001 C CNN
F 1 "GND" V 3205 3072 50  0000 R CNN
F 2 "" H 3200 3200 50  0001 C CNN
F 3 "" H 3200 3200 50  0001 C CNN
	1    3200 3200
	0    -1   -1   0   
$EndComp
$Comp
L power:GND #PWR0222
U 1 1 5CA06E70
P 3200 2500
F 0 "#PWR0222" H 3200 2250 50  0001 C CNN
F 1 "GND" V 3205 2372 50  0000 R CNN
F 2 "" H 3200 2500 50  0001 C CNN
F 3 "" H 3200 2500 50  0001 C CNN
	1    3200 2500
	0    -1   -1   0   
$EndComp
$Comp
L power:GND #PWR0223
U 1 1 5CA072B6
P 3200 2800
F 0 "#PWR0223" H 3200 2550 50  0001 C CNN
F 1 "GND" V 3205 2672 50  0000 R CNN
F 2 "" H 3200 2800 50  0001 C CNN
F 3 "" H 3200 2800 50  0001 C CNN
	1    3200 2800
	0    -1   -1   0   
$EndComp
$Comp
L power:GND #PWR0224
U 1 1 5CA075C0
P 3200 2000
F 0 "#PWR0224" H 3200 1750 50  0001 C CNN
F 1 "GND" V 3205 1872 50  0000 R CNN
F 2 "" H 3200 2000 50  0001 C CNN
F 3 "" H 3200 2000 50  0001 C CNN
	1    3200 2000
	0    -1   -1   0   
$EndComp
$Comp
L power:+3V3 #PWR0225
U 1 1 5CA093D9
P 3200 1900
F 0 "#PWR0225" H 3200 1750 50  0001 C CNN
F 1 "+3V3" V 3215 2028 50  0000 L CNN
F 2 "" H 3200 1900 50  0001 C CNN
F 3 "" H 3200 1900 50  0001 C CNN
	1    3200 1900
	0    1    1    0   
$EndComp
$Comp
L power:+3V3 #PWR0226
U 1 1 5CA09B20
P 3200 3300
F 0 "#PWR0226" H 3200 3150 50  0001 C CNN
F 1 "+3V3" V 3215 3428 50  0000 L CNN
F 2 "" H 3200 3300 50  0001 C CNN
F 3 "" H 3200 3300 50  0001 C CNN
	1    3200 3300
	0    1    1    0   
$EndComp
$Comp
L power:+3V3 #PWR0227
U 1 1 5CA0A628
P 3200 4500
F 0 "#PWR0227" H 3200 4350 50  0001 C CNN
F 1 "+3V3" V 3215 4628 50  0000 L CNN
F 2 "" H 3200 4500 50  0001 C CNN
F 3 "" H 3200 4500 50  0001 C CNN
	1    3200 4500
	0    1    1    0   
$EndComp
$Comp
L power:+3V3 #PWR0228
U 1 1 5CA0B011
P 1800 2400
F 0 "#PWR0228" H 1800 2250 50  0001 C CNN
F 1 "+3V3" V 1815 2528 50  0000 L CNN
F 2 "" H 1800 2400 50  0001 C CNN
F 3 "" H 1800 2400 50  0001 C CNN
	1    1800 2400
	0    -1   -1   0   
$EndComp
$Comp
L power:+3V3 #PWR0229
U 1 1 5CA0BDD9
P 1800 2500
F 0 "#PWR0229" H 1800 2350 50  0001 C CNN
F 1 "+3V3" V 1815 2628 50  0000 L CNN
F 2 "" H 1800 2500 50  0001 C CNN
F 3 "" H 1800 2500 50  0001 C CNN
	1    1800 2500
	0    -1   -1   0   
$EndComp
Wire Wire Line
	10950 2750 10650 2750
Text Label 10900 2750 2    50   ~ 0
SWD_IO
Wire Wire Line
	10950 2650 10650 2650
Text Label 10900 2650 2    50   ~ 0
SWD_RESET
Wire Wire Line
	10950 3350 10700 3350
Text Label 10900 3350 2    50   ~ 0
W5500_MOSI
Wire Wire Line
	8650 5800 8350 5800
Text Label 8600 5800 2    50   ~ 0
W5500_MISO
Wire Wire Line
	8650 5300 8350 5300
Text Label 8600 5300 2    50   ~ 0
W5500_SCK
Wire Wire Line
	8650 5200 8350 5200
Wire Wire Line
	8650 6000 8350 6000
Text Label 8600 6000 2    50   ~ 0
W5500_SS
Wire Wire Line
	8650 6200 8350 6200
Wire Wire Line
	8650 5500 8350 5500
Wire Wire Line
	8650 4200 8350 4200
Wire Wire Line
	10950 1450 10650 1450
Wire Wire Line
	10950 1550 10650 1550
Text Label 10700 1650 0    50   ~ 0
IO11
Wire Wire Line
	3200 4200 3600 4200
Wire Wire Line
	3200 4100 3600 4100
Wire Wire Line
	3200 4000 3600 4000
Wire Wire Line
	3200 3900 3600 3900
Wire Wire Line
	3200 3800 3600 3800
Text Label 3200 4200 0    50   ~ 0
W5500_MOSI
Text Label 3200 4100 0    50   ~ 0
W5500_MISO
Text Label 3200 4000 0    50   ~ 0
W5500_SCK
Text Label 3200 3900 0    50   ~ 0
W5500_SS
Wire Wire Line
	3200 3500 3550 3500
Text Label 3200 3400 0    50   ~ 0
TMS
Wire Wire Line
	3200 3400 3550 3400
Text Label 3200 3500 0    50   ~ 0
TCK
Wire Wire Line
	10950 8150 11250 8150
$Comp
L power:GND #PWR0230
U 1 1 5D1530EF
P 12800 8700
F 0 "#PWR0230" H 12800 8450 50  0001 C CNN
F 1 "GND" V 12805 8572 50  0000 R CNN
F 2 "" H 12800 8700 50  0001 C CNN
F 3 "" H 12800 8700 50  0001 C CNN
	1    12800 8700
	1    0    0    -1  
$EndComp
$Comp
L power:+3V3 #PWR0231
U 1 1 5D153865
P 12800 7800
F 0 "#PWR0231" H 12800 7650 50  0001 C CNN
F 1 "+3V3" V 12815 7928 50  0000 L CNN
F 2 "" H 12800 7800 50  0001 C CNN
F 3 "" H 12800 7800 50  0001 C CNN
	1    12800 7800
	-1   0    0    -1  
$EndComp
$Comp
L Device:R R12
U 1 1 5D154D60
P 12000 7200
F 0 "R12" V 11915 7125 50  0000 C CNN
F 1 "330" V 11915 7295 50  0000 C CNN
F 2 "Resistor_SMD:R_0402_1005Metric" V 11930 7200 50  0001 C CNN
F 3 "~" H 12000 7200 50  0001 C CNN
	1    12000 7200
	-1   0    0    1   
$EndComp
$Comp
L power:+3V3 #PWR0232
U 1 1 5D155B2C
P 12000 7050
F 0 "#PWR0232" H 12000 6900 50  0001 C CNN
F 1 "+3V3" V 11990 7245 50  0000 C CNN
F 2 "" H 12000 7050 50  0001 C CNN
F 3 "" H 12000 7050 50  0001 C CNN
	1    12000 7050
	1    0    0    -1  
$EndComp
$Comp
L Device:R R15
U 1 1 5D18752A
P 1900 5700
F 0 "R15" V 1815 5625 50  0000 C CNN
F 1 "2k4" V 1815 5795 50  0000 C CNN
F 2 "Resistor_SMD:R_0402_1005Metric" V 1830 5700 50  0001 C CNN
F 3 "~" H 1900 5700 50  0001 C CNN
	1    1900 5700
	-1   0    0    1   
$EndComp
Wire Wire Line
	1900 5850 1900 5900
Connection ~ 1900 5900
$Comp
L power:+3V3 #PWR0233
U 1 1 5D1B9B29
P 1900 5500
F 0 "#PWR0233" H 1900 5350 50  0001 C CNN
F 1 "+3V3" H 1915 5673 50  0000 C CNN
F 2 "" H 1900 5500 50  0001 C CNN
F 3 "" H 1900 5500 50  0001 C CNN
	1    1900 5500
	1    0    0    -1  
$EndComp
Wire Wire Line
	1900 5500 1900 5550
$Comp
L Device:R R14
U 1 1 5D1EB220
P 1750 5700
F 0 "R14" V 1665 5625 50  0000 C CNN
F 1 "4k7" V 1665 5795 50  0000 C CNN
F 2 "Resistor_SMD:R_0402_1005Metric" V 1680 5700 50  0001 C CNN
F 3 "~" H 1750 5700 50  0001 C CNN
	1    1750 5700
	-1   0    0    1   
$EndComp
$Comp
L Device:R R16
U 1 1 5D1EB5F8
P 3250 5700
F 0 "R16" V 3165 5625 50  0000 C CNN
F 1 "4k7" V 3165 5795 50  0000 C CNN
F 2 "Resistor_SMD:R_0402_1005Metric" V 3180 5700 50  0001 C CNN
F 3 "~" H 3250 5700 50  0001 C CNN
	1    3250 5700
	-1   0    0    1   
$EndComp
Wire Wire Line
	1250 5900 1900 5900
Wire Wire Line
	1250 6000 2000 6000
Wire Wire Line
	1250 6100 1750 6100
Wire Wire Line
	1750 5850 1750 6100
Connection ~ 1750 6100
Wire Wire Line
	1750 6100 2000 6100
Wire Wire Line
	2950 6000 3250 6000
Wire Wire Line
	2950 6100 3550 6100
Wire Wire Line
	2950 6200 3550 6200
Wire Wire Line
	3250 5850 3250 6000
Connection ~ 3250 6000
Wire Wire Line
	3250 6000 3550 6000
$Comp
L power:+3V3 #PWR0234
U 1 1 5D3A2DDD
P 3250 5500
F 0 "#PWR0234" H 3250 5350 50  0001 C CNN
F 1 "+3V3" H 3265 5673 50  0000 C CNN
F 2 "" H 3250 5500 50  0001 C CNN
F 3 "" H 3250 5500 50  0001 C CNN
	1    3250 5500
	1    0    0    -1  
$EndComp
$Comp
L power:+3V3 #PWR0235
U 1 1 5D3A3443
P 1750 5500
F 0 "#PWR0235" H 1750 5350 50  0001 C CNN
F 1 "+3V3" H 1765 5673 50  0000 C CNN
F 2 "" H 1750 5500 50  0001 C CNN
F 3 "" H 1750 5500 50  0001 C CNN
	1    1750 5500
	1    0    0    -1  
$EndComp
Wire Wire Line
	1750 5500 1750 5550
Wire Wire Line
	3250 5500 3250 5550
Connection ~ 11700 8650
Wire Wire Line
	11400 7550 12150 7550
Wire Wire Line
	11500 7650 12150 7650
Wire Wire Line
	10950 7750 12150 7750
Wire Wire Line
	10950 7850 12150 7850
Wire Wire Line
	11300 8450 12150 8450
Wire Wire Line
	11700 8650 12150 8650
Wire Wire Line
	12000 8550 12150 8550
Connection ~ 12000 8550
Wire Wire Line
	12000 7350 12000 8550
NoConn ~ 10650 1050
NoConn ~ 10650 1150
NoConn ~ 10650 1850
$Comp
L Device:R R13
U 1 1 5D7F453D
P 12000 9000
F 0 "R13" V 11915 8925 50  0000 C CNN
F 1 "330" V 11915 9095 50  0000 C CNN
F 2 "Resistor_SMD:R_0402_1005Metric" V 11930 9000 50  0001 C CNN
F 3 "~" H 12000 9000 50  0001 C CNN
	1    12000 9000
	-1   0    0    1   
$EndComp
Wire Wire Line
	12000 8850 12000 8550
Wire Wire Line
	12000 9150 12000 9200
$Comp
L power:GND #PWR0236
U 1 1 5D85AFBC
P 12000 9500
F 0 "#PWR0236" H 12000 9250 50  0001 C CNN
F 1 "GND" H 12005 9327 50  0000 C CNN
F 2 "" H 12000 9500 50  0001 C CNN
F 3 "" H 12000 9500 50  0001 C CNN
	1    12000 9500
	1    0    0    -1  
$EndComp
$Comp
L Device:LED D1
U 1 1 5D88E2B6
P 12000 9350
F 0 "D1" V 12039 9233 50  0000 R CNN
F 1 "LED" V 11948 9233 50  0000 R CNN
F 2 "LED_SMD:LED_0603_1608Metric" H 12000 9350 50  0001 C CNN
F 3 "~" H 12000 9350 50  0001 C CNN
	1    12000 9350
	0    -1   -1   0   
$EndComp
NoConn ~ 12150 8550
Wire Wire Line
	3200 3100 3550 3100
Wire Wire Line
	3200 3000 3550 3000
Wire Wire Line
	10950 9050 11250 9050
Wire Wire Line
	3200 2900 3550 2900
Wire Wire Line
	3200 2700 3550 2700
Wire Wire Line
	3200 2600 3550 2600
Text Label 3200 2900 0    50   ~ 0
IN3
Wire Wire Line
	8650 4100 8350 4100
Wire Wire Line
	3200 2400 3550 2400
Wire Wire Line
	3200 2300 3550 2300
Wire Wire Line
	3200 2200 3550 2200
Text Label 3200 3800 0    50   ~ 0
W5500_RSTN
Text Label 8600 5600 2    50   ~ 0
W5500_RSTN
Text Label 8600 5200 2    50   ~ 0
W5500_INTN
Text Label 8600 6200 2    50   ~ 0
RXD
Text Label 8600 5500 2    50   ~ 0
TXD
Text Label 11200 9050 2    50   ~ 0
IN2
Text Label 1800 2900 2    50   ~ 0
IN2
Text Label 3200 3100 0    50   ~ 0
IN0
Text Label 8600 4900 2    50   ~ 0
IN0
Text Label 3200 3000 0    50   ~ 0
IN1
Text Label 8600 4700 2    50   ~ 0
IN1
Text Label 8600 4800 2    50   ~ 0
OUT0
Text Label 1800 2800 2    50   ~ 0
OUT0
Text Label 8600 4100 2    50   ~ 0
OUT1
Text Label 3200 2700 0    50   ~ 0
OUT1
Text Label 8600 4500 2    50   ~ 0
OUT2
Text Label 3200 2600 0    50   ~ 0
OUT2
Text Label 8600 4200 2    50   ~ 0
OUT3
Text Label 3200 2400 0    50   ~ 0
OUT3
Text Label 8600 4600 2    50   ~ 0
SPI1_MOSI
Text Label 3200 2200 0    50   ~ 0
SPI1_MISO
Text Label 8600 4300 2    50   ~ 0
SPI1_MISO
Text Label 1800 2200 2    50   ~ 0
SPI1_SCK
Text Label 10900 1450 2    50   ~ 0
SPI1_SCK
Text Label 1800 2100 2    50   ~ 0
SPI1_SS
Text Label 8600 4400 2    50   ~ 0
SPI1_SS
$Comp
L power:GND #PWR0215
U 1 1 5CA04EA1
P 1800 3100
F 0 "#PWR0215" H 1800 2850 50  0001 C CNN
F 1 "GND" V 1805 2972 50  0000 R CNN
F 2 "" H 1800 3100 50  0001 C CNN
F 3 "" H 1800 3100 50  0001 C CNN
	1    1800 3100
	0    1    1    0   
$EndComp
Text Label 1800 3200 2    50   ~ 0
TDI
Text Label 1800 3300 2    50   ~ 0
TDO
Text Label 1800 3500 2    50   ~ 0
TXD
$Comp
L power:GND #PWR0216
U 1 1 5CA050BF
P 1800 3400
F 0 "#PWR0216" H 1800 3150 50  0001 C CNN
F 1 "GND" V 1805 3272 50  0000 R CNN
F 2 "" H 1800 3400 50  0001 C CNN
F 3 "" H 1800 3400 50  0001 C CNN
	1    1800 3400
	0    1    1    0   
$EndComp
Text Label 1800 3600 2    50   ~ 0
RXD
Text Label 1800 3900 2    50   ~ 0
W5500_INTN
Text Label 1800 4000 2    50   ~ 0
RESET
Text Label 1800 4300 2    50   ~ 0
SWD_RESET
Text Label 1800 4400 2    50   ~ 0
SWD_IO
Text Label 1800 4500 2    50   ~ 0
SWD_CLK
Wire Wire Line
	1800 4300 1400 4300
Wire Wire Line
	1800 4500 1400 4500
Wire Wire Line
	1800 4400 1400 4400
Wire Wire Line
	1800 4000 1400 4000
Wire Wire Line
	1800 3900 1400 3900
Wire Wire Line
	1400 3600 1800 3600
Wire Wire Line
	1400 3500 1800 3500
Wire Wire Line
	1800 3200 1400 3200
Wire Wire Line
	1800 3300 1400 3300
Wire Wire Line
	1800 2900 1400 2900
Wire Wire Line
	1400 2800 1800 2800
Wire Wire Line
	1800 2200 1450 2200
Wire Wire Line
	1800 2100 1450 2100
Wire Wire Line
	1800 2000 1450 2000
Text Label 1800 2000 2    50   ~ 0
IO11
Wire Wire Line
	11700 7350 11700 8550
$Comp
L Device:R R17
U 1 1 5C9AF775
P 10600 3050
F 0 "R17" V 10515 2975 50  0000 C CNN
F 1 "4k7" V 10515 3145 50  0000 C CNN
F 2 "Resistor_SMD:R_0402_1005Metric" V 10530 3050 50  0001 C CNN
F 3 "~" H 10600 3050 50  0001 C CNN
	1    10600 3050
	1    0    0    1   
$EndComp
Wire Wire Line
	10500 3250 10600 3250
$Comp
L power:+3V3 #PWR0237
U 1 1 5C9E345B
P 10600 2900
F 0 "#PWR0237" H 10600 2750 50  0001 C CNN
F 1 "+3V3" H 10615 3073 50  0000 C CNN
F 2 "" H 10600 2900 50  0001 C CNN
F 3 "" H 10600 2900 50  0001 C CNN
	1    10600 2900
	1    0    0    -1  
$EndComp
Wire Wire Line
	10600 3200 10600 3250
Connection ~ 10600 3250
Wire Wire Line
	10600 3250 10950 3250
$Comp
L Device:LED D2
U 1 1 5CB4C9DF
P 5650 4050
F 0 "D2" V 5689 3933 50  0000 R CNN
F 1 "LED-LOCK" V 5598 3933 50  0000 R CNN
F 2 "LED_SMD:LED_0603_1608Metric" H 5650 4050 50  0001 C CNN
F 3 "~" H 5650 4050 50  0001 C CNN
F 4 "D" H 5650 4050 50  0001 C CNN "Distributor"
F 5 "732-4978-1-ND" H 5650 4050 50  0001 C CNN "OrderNr"
	1    5650 4050
	0    -1   -1   0   
$EndComp
$Comp
L power:GND #PWR0238
U 1 1 5CB8299F
P 5650 4250
F 0 "#PWR0238" H 5650 4000 50  0001 C CNN
F 1 "GND" H 5655 4077 50  0000 C CNN
F 2 "" H 5650 4250 50  0001 C CNN
F 3 "" H 5650 4250 50  0001 C CNN
	1    5650 4250
	1    0    0    -1  
$EndComp
$Comp
L Device:R R18
U 1 1 5CB82A56
P 5650 3700
F 0 "R18" H 5450 3750 50  0000 L CNN
F 1 "680" H 5450 3650 50  0000 L CNN
F 2 "Resistor_SMD:R_0402_1005Metric" V 5580 3700 50  0001 C CNN
F 3 "~" H 5650 3700 50  0001 C CNN
	1    5650 3700
	-1   0    0    1   
$EndComp
Wire Wire Line
	5650 3850 5650 3900
Wire Wire Line
	5650 4200 5650 4250
Wire Wire Line
	5650 3550 5650 3400
Text Label 5650 3500 1    50   ~ 0
LED_LOCKED
$Comp
L Connector_Generic:Conn_02x10_Odd_Even J1
U 1 1 5CC7F2EE
P 5250 2250
F 0 "J1" H 5300 2867 50  0000 C CNN
F 1 "DNP" H 5300 2776 50  0000 C CNN
F 2 "myfootprints:PinHeader_2x10_P1.27mm_Vertical" H 5250 2250 50  0001 C CNN
F 3 "~" H 5250 2250 50  0001 C CNN
	1    5250 2250
	1    0    0    -1  
$EndComp
Wire Wire Line
	10950 5700 10650 5700
Wire Wire Line
	10950 5900 10650 5900
Wire Wire Line
	10950 5800 10650 5800
Wire Wire Line
	10950 6000 10650 6000
Wire Wire Line
	8650 3150 8300 3150
Wire Wire Line
	8650 3050 8300 3050
Wire Wire Line
	8650 2750 8300 2750
Wire Wire Line
	8650 2350 8300 2350
Wire Wire Line
	8650 2650 8300 2650
Wire Wire Line
	8650 2550 8300 2550
Wire Wire Line
	8650 2250 8300 2250
Wire Wire Line
	8650 3350 8300 3350
Wire Wire Line
	8650 2450 8300 2450
Wire Wire Line
	10950 5200 10650 5200
Wire Wire Line
	8650 2850 8300 2850
Wire Wire Line
	8650 2950 8300 2950
Text Label 8550 3350 2    50   ~ 0
SPARE11
Text Label 8550 3150 2    50   ~ 0
SPARE4
Text Label 8550 3050 2    50   ~ 0
SPARE5
Text Label 8550 2950 2    50   ~ 0
SPARE14
Text Label 8550 2850 2    50   ~ 0
SPARE15
Text Label 8550 2750 2    50   ~ 0
SPARE6
Text Label 8550 2650 2    50   ~ 0
SPARE8
Text Label 8550 2550 2    50   ~ 0
SPARE9
Text Label 8550 2450 2    50   ~ 0
SPARE12
Text Label 8550 2350 2    50   ~ 0
SPARE7
Text Label 8550 2250 2    50   ~ 0
SPARE10
Text Label 10850 5200 2    50   ~ 0
SPARE13
Text Label 10850 5700 2    50   ~ 0
SPARE0
Text Label 10850 5800 2    50   ~ 0
SPARE2
Text Label 10850 5900 2    50   ~ 0
SPARE1
Text Label 10850 6000 2    50   ~ 0
SPARE3
Wire Wire Line
	5050 1850 4800 1850
Wire Wire Line
	5050 1950 4800 1950
Wire Wire Line
	5050 2050 4800 2050
Wire Wire Line
	5050 2150 4800 2150
Wire Wire Line
	5050 2250 4800 2250
Wire Wire Line
	5050 2350 4800 2350
Wire Wire Line
	5050 2450 4800 2450
Wire Wire Line
	5050 2550 4800 2550
Wire Wire Line
	5550 2550 5750 2550
Wire Wire Line
	5550 2450 5750 2450
Wire Wire Line
	5550 2350 5750 2350
Wire Wire Line
	5550 2250 5750 2250
Wire Wire Line
	5550 2150 5750 2150
Wire Wire Line
	5550 2050 5750 2050
Wire Wire Line
	5550 1950 5750 1950
Wire Wire Line
	5550 1850 5750 1850
Text Label 5050 1850 2    50   ~ 0
SPARE0
Text Label 5050 1950 2    50   ~ 0
SPARE2
Text Label 5050 2050 2    50   ~ 0
SPARE4
Text Label 5050 2150 2    50   ~ 0
SPARE6
Text Label 5050 2250 2    50   ~ 0
SPARE8
Text Label 5050 2350 2    50   ~ 0
SPARE10
Text Label 5050 2450 2    50   ~ 0
SPARE12
Text Label 5050 2550 2    50   ~ 0
SPARE14
Text Label 5550 2550 0    50   ~ 0
SPARE15
Text Label 5550 2450 0    50   ~ 0
SPARE13
Text Label 5550 2350 0    50   ~ 0
SPARE11
Text Label 5550 2250 0    50   ~ 0
SPARE9
Text Label 5550 2150 0    50   ~ 0
SPARE7
Text Label 5550 2050 0    50   ~ 0
SPARE5
Text Label 5550 1950 0    50   ~ 0
SPARE3
Text Label 5550 1850 0    50   ~ 0
SPARE1
$Comp
L power:GND #PWR0239
U 1 1 5D3FC5ED
P 5000 2800
F 0 "#PWR0239" H 5000 2550 50  0001 C CNN
F 1 "GND" H 5005 2627 50  0000 C CNN
F 2 "" H 5000 2800 50  0001 C CNN
F 3 "" H 5000 2800 50  0001 C CNN
	1    5000 2800
	1    0    0    -1  
$EndComp
Wire Wire Line
	5050 2650 5000 2650
Wire Wire Line
	5000 2650 5000 2750
Wire Wire Line
	5050 2750 5000 2750
Connection ~ 5000 2750
Wire Wire Line
	5000 2750 5000 2800
$Comp
L power:+3V3 #PWR0240
U 1 1 5D477C1B
P 5650 2650
F 0 "#PWR0240" H 5650 2500 50  0001 C CNN
F 1 "+3V3" V 5665 2778 50  0000 L CNN
F 2 "" H 5650 2650 50  0001 C CNN
F 3 "" H 5650 2650 50  0001 C CNN
	1    5650 2650
	0    1    1    0   
$EndComp
Wire Wire Line
	5550 2650 5600 2650
Wire Wire Line
	5550 2750 5600 2750
Wire Wire Line
	5600 2750 5600 2650
Connection ~ 5600 2650
Wire Wire Line
	5600 2650 5650 2650
Wire Wire Line
	8650 1650 8250 1650
Text Label 8250 1650 0    50   ~ 0
LED_LOCKED
Wire Wire Line
	8650 1750 8250 1750
Wire Wire Line
	8650 1850 8250 1850
Text Label 8250 1850 0    50   ~ 0
BTN2
$Comp
L Device:LED D3
U 1 1 5D701A3C
P 5250 4050
F 0 "D3" V 5289 3932 50  0000 R CNN
F 1 "LED-USER" V 5198 3932 50  0000 R CNN
F 2 "LED_SMD:LED_0603_1608Metric" H 5250 4050 50  0001 C CNN
F 3 "~" H 5250 4050 50  0001 C CNN
F 4 "D" H 5250 4050 50  0001 C CNN "Distributor"
F 5 "732-4978-1-ND" H 5250 4050 50  0001 C CNN "OrderNr"
	1    5250 4050
	0    -1   -1   0   
$EndComp
$Comp
L power:GND #PWR0245
U 1 1 5D701A46
P 5250 4250
F 0 "#PWR0245" H 5250 4000 50  0001 C CNN
F 1 "GND" H 5255 4077 50  0000 C CNN
F 2 "" H 5250 4250 50  0001 C CNN
F 3 "" H 5250 4250 50  0001 C CNN
	1    5250 4250
	1    0    0    -1  
$EndComp
$Comp
L Device:R R21
U 1 1 5D701A50
P 5250 3700
F 0 "R21" H 5050 3750 50  0000 L CNN
F 1 "680" H 5050 3650 50  0000 L CNN
F 2 "Resistor_SMD:R_0402_1005Metric" V 5180 3700 50  0001 C CNN
F 3 "~" H 5250 3700 50  0001 C CNN
	1    5250 3700
	-1   0    0    1   
$EndComp
Wire Wire Line
	5250 3850 5250 3900
Wire Wire Line
	5250 4200 5250 4250
Wire Wire Line
	5250 3550 5250 3400
Text Label 5250 3500 1    50   ~ 0
LED_USER
Text Label 8250 1750 0    50   ~ 0
LED_USER
$Comp
L Device:LED D4
U 1 1 5D755E99
P 4900 4050
F 0 "D4" V 4939 3933 50  0000 R CNN
F 1 "LED-3V3" V 4848 3933 50  0000 R CNN
F 2 "LED_SMD:LED_0603_1608Metric" H 4900 4050 50  0001 C CNN
F 3 "~" H 4900 4050 50  0001 C CNN
F 4 "D" H 4900 4050 50  0001 C CNN "Distributor"
F 5 "732-4978-1-ND" H 4900 4050 50  0001 C CNN "OrderNr"
	1    4900 4050
	0    -1   -1   0   
$EndComp
$Comp
L power:GND #PWR0246
U 1 1 5D755EA3
P 4900 4250
F 0 "#PWR0246" H 4900 4000 50  0001 C CNN
F 1 "GND" H 4905 4077 50  0000 C CNN
F 2 "" H 4900 4250 50  0001 C CNN
F 3 "" H 4900 4250 50  0001 C CNN
	1    4900 4250
	1    0    0    -1  
$EndComp
$Comp
L Device:R R22
U 1 1 5D755EAD
P 4900 3700
F 0 "R22" H 4700 3750 50  0000 L CNN
F 1 "680" H 4700 3650 50  0000 L CNN
F 2 "Resistor_SMD:R_0402_1005Metric" V 4830 3700 50  0001 C CNN
F 3 "~" H 4900 3700 50  0001 C CNN
	1    4900 3700
	-1   0    0    1   
$EndComp
Wire Wire Line
	4900 3850 4900 3900
Wire Wire Line
	4900 4200 4900 4250
$Comp
L power:+3V3 #PWR0247
U 1 1 5D799B6B
P 4900 3450
F 0 "#PWR0247" H 4900 3300 50  0001 C CNN
F 1 "+3V3" H 4915 3623 50  0000 C CNN
F 2 "" H 4900 3450 50  0001 C CNN
F 3 "" H 4900 3450 50  0001 C CNN
	1    4900 3450
	1    0    0    -1  
$EndComp
Wire Wire Line
	4900 3450 4900 3550
Wire Wire Line
	11800 8750 12150 8750
Connection ~ 11800 8750
Text Label 12050 8750 0    50   ~ 0
INIT
Text Label 1800 1900 2    50   ~ 0
INIT
Wire Wire Line
	1800 1900 1450 1900
$Comp
L Device:R R20
U 1 1 5DD7C0AF
P 12800 8450
F 0 "R20" V 12715 8375 50  0000 C CNN
F 1 "0" V 12715 8545 50  0000 C CNN
F 2 "Resistor_SMD:R_0402_1005Metric" V 12730 8450 50  0001 C CNN
F 3 "~" H 12800 8450 50  0001 C CNN
	1    12800 8450
	-1   0    0    1   
$EndComp
$Comp
L Device:R R19
U 1 1 5DD7C658
P 12800 8050
F 0 "R19" V 12715 7975 50  0000 C CNN
F 1 "DNP" V 12715 8145 50  0000 C CNN
F 2 "Resistor_SMD:R_0402_1005Metric" V 12730 8050 50  0001 C CNN
F 3 "~" H 12800 8050 50  0001 C CNN
	1    12800 8050
	-1   0    0    1   
$EndComp
Wire Wire Line
	12800 8250 12800 8300
Wire Wire Line
	10950 8250 12800 8250
Wire Wire Line
	12800 8250 12800 8200
Connection ~ 12800 8250
Wire Wire Line
	12800 7800 12800 7900
Wire Wire Line
	12800 8600 12800 8700
Wire Wire Line
	11700 8550 11700 8650
Wire Wire Line
	10950 8550 12000 8550
Wire Wire Line
	3200 2100 3550 2100
Text Label 3300 2100 0    50   ~ 0
PROGRAM
Text Notes 3700 2100 0    50   ~ 0
>=V1.2
$EndSCHEMATC
